"[('Int', 'O'), ('J', 'O'), ('Clin', 'O'), ('Exp', 'O'), ('Pathol', 'O'), ('2014;7(1):92', 'B-prge'), ('-', 'I-prge'), ('100', 'I-prge'), ('www.ijcep.com', 'O'), ('/ISSN:1936', 'B-prge'), ('-', 'I-prge'), ('2625/IJCEP1311001', 'I-prge'), ('Original', 'O'), ('Article', 'O'), ('siRNA', 'B-prge'), ('-', 'I-prge'), ('mediated', 'I-prge'), ('silencing', 'O'), ('of', 'O'), ('CDK8', 'O'), ('inhibits', 'O'), ('proliferation', 'O'), ('and', 'O'), ('growth', 'O'), ('in', 'O'), ('breast', 'O'), ('cancer', 'O'), ('cells', 'O'), ('Xiao', 'B-prge'), ('-', 'I-prge'), ('Yu', 'O'), ('Li,', 'O'), ('Qi', 'B-prge'), ('-', 'I-prge'), ('Feng', 'O'), ('Luo,', 'O'), ('Chuan', 'B-prge'), ('-', 'I-prge'), ('Kui', 'O'), ('Wei,', 'O'), ('Deng', 'B-prge'), ('-', 'I-prge'), ('Feng', 'O'), ('Li,', 'O'), ('Lin', 'O'), ('Fang', 'O'), ('Department', 'O'), ('of', 'O'), ('Breast', 'O'), ('and', 'O'), ('Thyroid', 'O'), ('Surgery,', 'O'), ('Shanghai', 'O'), ('Tenth', 'O'), ('People’s', 'O'), ('Hospital,', 'O'), ('Tongji', 'O'), ('University,', 'O'), ('Shanghai,', 'O'), ('200072,', 'O'), ('China', 'O'), ('Received', 'O'), ('November', 'O'), ('1,', 'O'), ('2013;', 'O'), ('Accepted', 'O'), ('November', 'O'), ('25,', 'O'), ('2013;', 'O'), ('Epub', 'O'), ('December', 'O'), ('15,', 'O'), ('2013;', 'O'), ('Published', 'O'), ('January', 'O'), ('1,', 'O'), ('2014', 'O'), ('Abstract:', 'O'), ('CDK8', 'O'), ('is', 'O'), ('a', 'O'), ('cyclin', 'B-prge'), ('-', 'I-prge'), ('dependent', 'I-prge'), ('kinase', 'O'), ('(CDK)', 'O'), ('member', 'O'), ('of', 'O'), ('the', 'O'), ('mediator', 'O'), ('complex', 'O'), ('that', 'O'), ('couples', 'O'), ('transcriptional', 'O'), ('regulators', 'O'), ('to', 'O'), ('the', 'O'), ('basal', 'O'), ('transcriptional', 'O'), ('machinery,', 'O'), ('and', 'O'), ('it', 'O'), ('has', 'O'), ('been', 'O'), ('investigated', 'O'), ('for', 'O'), ('possible', 'O'), ('tumor', 'O'), ('promoting', 'O'), ('functions', 'O')]"
"[('However,', 'O'), ('it', 'O'), ('is', 'O'), ('unclear', 'O'), ('whether', 'O'), ('CDK8', 'O'), ('is', 'O'), ('involved', 'O'), ('in', 'O'), ('breast', 'O'), ('tumor', 'O'), ('cells', 'O'), ('growth', 'O')]"
"[('The', 'O'), ('aim', 'O'), ('of', 'O'), ('this', 'O'), ('study', 'O'), ('was', 'O'), ('to', 'O'), ('determine', 'O'), ('whether', 'O'), ('the', 'O'), ('suppression', 'O'), ('of', 'O'), ('CDK8', 'O'), ('by', 'O'), ('small', 'O'), ('interfering', 'O'), ('RNA', 'O'), ('(siRNA)', 'O'), ('inhibits', 'O'), ('the', 'O'), ('growth', 'O'), ('of', 'O'), ('human', 'O'), ('breast', 'O'), ('cancer', 'O'), ('cell', 'O')]"
"[('Methods:', 'O'), ('CDK8', 'B-prge'), ('-', 'I-prge'), ('siRNA', 'O'), ('transfection', 'O'), ('was', 'O'), ('used', 'O'), ('to', 'O'), ('silencing', 'O'), ('the', 'O'), ('CDK8', 'O'), ('gene', 'O'), ('in', 'O'), ('established', 'O'), ('breast', 'O'), ('cancer', 'O'), ('cell', 'O'), ('line,', 'O'), ('MDA', 'B-prge'), ('-', 'I-prge'), ('MB', 'B-prge'), ('-', 'I-prge'), ('231', 'I-prge'), ('MDA', 'B-prge'), ('-', 'I-prge'), ('MB', 'B-prge'), ('-', 'I-prge'), ('231', 'I-prge'), ('and', 'O'), ('MCF', 'B-prge'), ('-', 'I-prge'), ('7,', 'I-prge'), ('successful', 'O'), ('transfection', 'O'), ('being', 'O'), ('confirmed', 'O'), ('by', 'O'), ('Real', 'B-prge'), ('-', 'I-prge'), ('time', 'I-prge'), ('PCR', 'O'), ('and', 'O'), ('could', 'O'), ('be', 'O'), ('shown', 'O'), ('by', 'O'), ('Western', 'O'), ('Blotting', 'O')]"
"[('CDK8', 'O'), ('deletion', 'O'), ('caused', 'O'), ('significant', 'O'), ('decline', 'O'), ('in', 'O'), ('cell', 'O'), ('proliferation', 'O'), ('was', 'O'), ('observed', 'O'), ('in', 'O'), ('breast', 'O'), ('cancer', 'O'), ('cell', 'O'), ('lines', 'O'), ('as', 'O'), ('investigated', 'O'), ('by', 'O'), ('MTS', 'B-prge'), ('assay,', 'O'), ('the', 'O'), ('number', 'O'), ('and', 'O'), ('size', 'O'), ('of', 'O'), ('the', 'O'), ('colonies', 'O'), ('formed', 'O'), ('were', 'O'), ('also', 'O'), ('significantly', 'O'), ('reduced', 'O'), ('in', 'O'), ('the', 'O'), ('absence', 'O'), ('of', 'O'), ('CDK8', 'O')]"
"[('Furthermore,', 'O'), ('transwell', 'O'), ('test', 'O'), ('were', 'O'), ('conducted', 'O'), ('to', 'O'), ('explore', 'O'), ('the', 'O'), ('migration', 'O'), ('of', 'O'), ('breast', 'O'), ('cancer', 'O'), ('cells', 'O')]"
"[('Moreover', 'O'), ('CDK8', 'O'), ('gene', 'O'), ('knockdown', 'O'), ('arrested', 'O'), ('cell', 'O'), ('cycle', 'O')]"
"[('Results:', 'O'), ('CDK8', 'O'), ('mRNA', 'O'), ('expression', 'O'), ('was', 'O'), ('reduced', 'O'), ('after', 'O'), ('transfection', 'O'), ('with', 'O'), ('CDK8', 'B-prge'), ('-', 'I-prge'), ('siRNA,', 'O'), ('and', 'O'), ('protein', 'O'), ('expression', 'O'), ('had', 'B-prge'), ('a', 'O'), ('similar', 'O'), ('trend', 'O')]"
"[('Transfection', 'O'), ('of', 'O'), ('CDK8', 'B-prge'), ('-', 'I-prge'), ('siRNA', 'O'), ('suppressed', 'O'), ('breast', 'O'), ('cancer', 'O'), ('cells', 'O'), ('proliferation', 'O'), ('and', 'O'), ('migration;', 'O'), ('meanwhile', 'O'), ('the', 'O'), ('cells', 'O'), ('were', 'O'), ('arrested', 'O'), ('at', 'O'), ('G0/G1', 'B-prge'), ('phase', 'O')]"
"[('Conclusions:', 'O'), ('CDK8', 'O'), ('plays', 'O'), ('an', 'O'), ('essential', 'O'), ('role', 'O'), ('in', 'O'), ('breast', 'O'), ('cancer', 'O'), ('progression,', 'O'), ('which', 'O'), ('might', 'O'), ('inhibit', 'O'), ('the', 'O'), ('proliferation', 'O'), ('and', 'O'), ('migration', 'O'), ('in', 'O'), ('breast', 'O'), ('cancer', 'O'), ('cells', 'O')]"
"[('Keywords:', 'O'), ('Breast', 'O'), ('cancer,', 'O'), ('CDK8,', 'O'), ('siRNA', 'O'), ('Introduction', 'O'), ('Breast', 'O'), ('cancer', 'O'), ('is', 'O'), ('the', 'O'), ('most', 'O'), ('common', 'O'), ('malignancy', 'O'), ('and', 'O'), ('the', 'O'), ('second', 'O'), ('leading', 'O'), ('cause', 'O'), ('of', 'O'), ('death', 'O'), ('in', 'O'), ('women', 'O'), ('[1]', 'O')]"
"[('The', 'O'), ('three', 'O'), ('most', 'O'), ('commonly', 'O'), ('diagnosed', 'O'), ('types', 'O'), ('of', 'O'), ('cancer', 'O'), ('among', 'O'), ('women', 'O'), ('in', 'O'), ('the', 'O'), ('United', 'O'), ('States', 'O'), ('in', 'O'), ('2012', 'O'), ('were', 'O'), ('estimated', 'O'), ('to', 'O'), ('be', 'O'), ('cancers', 'O'), ('of', 'O'), ('the', 'O'), ('breast,', 'O'), ('lung', 'O'), ('and', 'O'), ('colon,', 'O'), ('accounting', 'O'), ('for', 'O'), ('52%', 'O'), ('of', 'O'), ('cancer', 'O'), ('cases', 'O'), ('in', 'O'), ('women,', 'O'), ('while', 'O'), ('breast', 'O'), ('cancer', 'O'), ('alone', 'O'), ('was', 'O'), ('expected', 'O'), ('to', 'O'), ('account', 'O'), ('for', 'O'), ('29%', 'O'), ('of', 'O'), ('all', 'O'), ('new', 'O'), ('cancer', 'O'), ('cases', 'O'), ('among', 'O'), ('women', 'O'), ('and', 'O'), ('it', 'O'), ('has', 'O'), ('been', 'O'), ('the', 'O'), ('number', 'O'), ('one', 'O'), ('cause', 'O'), ('of', 'O'), ('cancer', 'O'), ('death', 'O'), ('among', 'O'), ('women', 'O'), ('[2]', 'O')]"
"[('The', 'O'), ('causes', 'O'), ('and', 'O'), ('pathogenesis', 'O'), ('of', 'O'), ('breast', 'O'), ('cancer', 'O'), ('are', 'O'), ('poorly', 'O'), ('understood,', 'O'), ('breast', 'O'), ('cancer', 'O'), ('may', 'O'), ('result', 'O'), ('from', 'O'), ('genetic', 'O'), ('alteration', 'O'), ('of', 'O'), ('normal', 'O'), ('cells', 'O')]"
"[('Small', 'O'), ('interfering', 'O'), ('RNA', 'O'), ('(siRNA)', 'O'), ('is', 'O'), ('a', 'O'), ('kind', 'O'), ('of', 'O'), ('small', 'O'), ('molecular', 'O'), ('RNA', 'O'), ('(21~25', 'O'), ('nucleotides),', 'O'), ('processed', 'O'), ('by', 'O'), ('Dicer', 'O'), ('(RNAase', 'O'), ('III', 'O'), ('family', 'O'), ('specific', 'O'), ('for', 'O'), ('double', 'O'), ('stranded', 'O'), ('RNA', 'O'), ('enzyme)', 'O')]"
"[('siRNA', 'O'), ('is', 'O'), ('a', 'O'), ('member', 'O'), ('of', 'O'), ('the', 'O'), ('siRISC', 'O'), ('[3],', 'O'), ('arouse', 'O'), ('the', 'O'), ('complementary', 'O'), ('tar', 'B-prge'), ('-', 'I-prge'), ('get', 'I-prge'), ('mRNA', 'O'), ('silencing', 'O')]"
"[('In', 'O'), ('the', 'O'), ('last', 'O'), ('few', 'O'), ('years,', 'O'), ('siRNA', 'O'), ('has', 'O'), ('gained', 'O'), ('more', 'O'), ('attention', 'O'), ('as', 'O'), ('a', 'O'), ('more', 'O'), ('specific', 'O'), ('and', 'O'), ('efficient', 'O'), ('approach', 'O'), ('of', 'O'), ('cancer', 'O'), ('therapy', 'O')]"
"[('The', 'O'), ('function', 'O'), ('of', 'O'), ('siRNA', 'O'), ('mediated', 'O'), ('cancer', 'O'), ('therapy', 'O'), ('is', 'O'), ('to', 'O'), ('down', 'O'), ('regulate', 'O'), ('the', 'O'), ('mutant', 'O'), ('cancer', 'O'), ('relevant', 'O'), ('transcripts', 'O'), ('and', 'O'), ('restoring', 'O'), ('wild', 'B-prge'), ('-', 'I-prge'), ('type', 'I-prge'), ('function', 'O'), ('in', 'O'), ('heterozygous', 'O'), ('cancer', 'O'), ('cell', 'O'), ('models', 'O'), ('[4]', 'O')]"
"[('For', 'O'), ('this', 'O'), ('therapy', 'O'), ('identification', 'O'), ('of', 'O'), ('genes', 'O'), ('which', 'O'), ('have', 'O'), ('a', 'O'), ('significant', 'O'), ('role', 'O'), ('in', 'O'), ('cancer', 'O'), ('development', 'O'), ('and', 'O'), ('progression', 'O'), ('is', 'O'), ('of', 'O'), ('utmost', 'O'), ('importance', 'O')]"
"[('CDK8', 'O'), ('(cyclin', 'O'), ('dependent', 'O'), ('kinase', 'O'), ('8)', 'O'), ('locating', 'O'), ('on', 'O'), ('chromosome13q12', 'O'), ('has', 'O'), ('five', 'O'), ('transcripts', 'O'), ('and', 'O'), ('only', 'O'), ('one', 'O'), ('transcript', 'O'), ('encodes', 'O'), ('protein', 'O'), ('product', 'O'), ('containing', 'O'), ('464', 'O'), ('amino', 'O'), ('acid', 'O'), ('residues', 'O'), ('(molecular', 'O'), ('weight', 'O'), ('53.2', 'O'), ('kD)', 'O')]"
"[('CDK8', 'O'), ('has', 'O'), ('important', 'O'), ('function', 'O'), ('on', 'O'), ('the', 'O'), ('regulation', 'O'), ('of', 'O'), ('gene', 'O'), ('transcription', 'O'), ('[5]', 'O')]"
"[('and', 'O'), ('is', 'O'), ('involved', 'O'), ('in', 'O'), ('the', 'O'), ('regulation', 'O'), ('of', 'O'), ('the', 'O'), ('transcription', 'O'), ('in', 'O'), ('the', 'O'), ('formation', 'O'), ('of', 'O'), ('tumors', 'O'), ('[6,', 'O'), ('7]', 'O')]"
"[('Recently,', 'O'), ('CDK8', 'O'), ('was', 'O'), ('demonstrated', 'O'), ('to', 'O'), ('be', 'O'), ('a', 'O'), ('potent', 'O'), ('oncoprotein', 'O'), ('[6],', 'O'), ('which', 'O'), ('plays', 'O'), ('a', 'O'), ('key', 'O'), ('role', 'O'), ('in', 'O'), ('the', 'O'), ('regulation', 'O'), ('of', 'O'), ('cell', 'O'), ('cycle', 'O'), ('and', 'O'), ('cell', 'O'), ('growth', 'O'), ('on', 'O'), ('post', 'B-prge'), ('-', 'I-prge'), ('tran', 'I-prge'), ('-', 'I-prge'), ('post', 'I-prge'), ('-', 'I-prge'), ('tran', 'I-prge'), ('-', 'I-prge'), ('CDK8', 'O'), ('and', 'O'), ('breast', 'O'), ('cancer', 'O'), ('scriptional', 'O'), ('level,', 'O'), ('and', 'O'), ('promotes', 'O'), ('the', 'O'), ('development', 'O'), ('and', 'O'), ('progression', 'O'), ('of', 'O'), ('colorectal', 'O'), ('cancer', 'O'), ('[8]', 'O')]"
"[('CDK8', 'O'), ('is', 'O'), ('a', 'O'), ('cyclin', 'B-prge'), ('-', 'I-prge'), ('dependent', 'I-prge'), ('kinase', 'O'), ('(CDK)', 'O'), ('member', 'O'), ('of', 'O'), ('the', 'O'), ('mediator', 'O'), ('complex', 'O'), ('that', 'O'), ('couples', 'O'), ('transcriptional', 'O'), ('regulators', 'O'), ('to', 'O'), ('the', 'O'), ('basal', 'O'), ('transcriptional', 'O'), ('machinery,', 'O'), ('and', 'O'), ('is', 'O'), ('implicated', 'O'), ('in', 'O'), ('the', 'O'), ('transcriptional', 'O'), ('regulation', 'O'), ('of', 'O'), ('key', 'O'), ('pathways', 'O'), ('involved', 'O'), ('in', 'O'), ('cancers', 'O')]"
"[('Even', 'O'), ('though', 'O'), ('CDK8', 'O'), ('has', 'O'), ('been', 'O'), ('recognized', 'O'), ('as', 'O'), ('a', 'O'), ('novel', 'O'), ('diagnostic', 'O'), ('marker', 'O'), ('in', 'O'), ('various', 'O'), ('cancers,', 'O'), ('its', 'O'), ('role', 'O'), ('in', 'O'), ('breast', 'O'), ('cancers', 'O'), ('has', 'O'), ('not', 'O'), ('been', 'O'), ('well', 'O'), ('illustrated', 'O')]"
"[('Consequently,', 'O'), ('to', 'O'), ('better', 'O'), ('elucidate', 'O'), ('the', 'O'), ('role', 'O'), ('of', 'O'), ('CDK8', 'O'), ('in', 'O'), ('breast', 'O'), ('cancer,', 'O'), ('siRNA', 'O'), ('was', 'O'), ('introduced', 'O'), ('in', 'O'), ('breast', 'O'), ('cancer', 'O'), ('cell', 'O'), ('line', 'O'), ('MDA', 'B-prge'), ('-', 'I-prge'), ('MB', 'B-prge'), ('-', 'I-prge'), ('231', 'I-prge'), ('MDA', 'B-prge'), ('-', 'I-prge'), ('MB', 'B-prge'), ('-', 'I-prge'), ('231', 'I-prge'), ('and', 'O'), ('MCF', 'B-prge'), ('-', 'I-prge'), ('7', 'I-prge'), ('to', 'O'), ('downregulate', 'O'), ('the', 'O'), ('expression', 'O'), ('of', 'O'), ('CDK8', 'O')]"
"[('In', 'O'), ('addition,', 'O'), ('we', 'O'), ('verified', 'O'), ('the', 'O'), ('mRNA', 'O'), ('and', 'O'), ('protein', 'O'), ('expression', 'O'), ('levels', 'O'), ('of', 'O'), ('CDK8', 'O'), ('in', 'O'), ('breast', 'O'), ('cancer', 'O'), ('cells', 'O')]"
"[('The', 'O'), ('present', 'O'), ('study’s', 'O'), ('results', 'O'), ('show', 'O'), ('that', 'O'), ('the', 'O'), ('knockdown', 'O'), ('of', 'O'), ('CDK8', 'O'), ('has', 'O'), ('an', 'O'), ('inhibitory', 'O'), ('effect', 'O'), ('on', 'O'), ('breast', 'O'), ('cancer', 'O'), ('cell', 'O'), ('proliferation', 'O'), ('and', 'O'), ('migration', 'O'), ('suggesting', 'O'), ('that', 'O'), ('CDK8', 'O'), ('can', 'O'), ('be', 'O'), ('applied', 'O'), ('as', 'O'), ('a', 'O'), ('potentially', 'O'), ('therapeutic', 'O'), ('marker', 'O'), ('for', 'O'), ('breast', 'O'), ('cancer', 'O'), ('treatment', 'O')]"
"[('Materials', 'O'), ('and', 'O'), ('methods', 'O'), ('Cell', 'O'), ('line', 'O'), ('Human', 'O'), ('breast', 'O'), ('cancer', 'O'), ('cell', 'O'), ('line', 'O'), ('MDA', 'B-prge'), ('-', 'I-prge'), ('MB', 'B-prge'), ('-', 'I-prge'), ('231', 'I-prge'), ('MDA', 'B-prge'), ('-', 'I-prge'), ('MB', 'B-prge'), ('-', 'I-prge'), ('231', 'I-prge'), ('and', 'O'), ('MCF', 'B-prge'), ('-', 'I-prge'), ('7', 'I-prge'), ('cells', 'O'), ('were', 'O'), ('purchased', 'O'), ('from', 'O'), ('Chinese', 'O'), ('Academy', 'O'), ('of', 'O'), ('Sciences', 'O'), ('in', 'O'), ('Shanghai', 'O')]"
"[('Reagents', 'O'), ('DMEM/high', 'O'), ('glucose', 'O'), ('medium', 'O'), ('and', 'O'), ('fetal', 'O'), ('bovine', 'O'), ('serum', 'O'), ('were', 'O'), ('purchased', 'O'), ('from', 'O'), ('Hyclone', 'O')]"
"[('siRNA', 'O'), ('and', 'O'), ('CDK8', 'O'), ('primer', 'O'), ('were', 'O'), ('synthesized', 'O'), ('by', 'O'), ('Integrated', 'O'), ('Biotech', 'O'), ('Solutions', 'O'), ('Co,', 'O'), ('Ltd', 'O'), ('(Shanghai,', 'O'), ('China)', 'O')]"
"[('SuperScript', 'O'), ('III', 'O'), ('Reverse', 'O'), ('Transcriptase', 'O'), ('kit,', 'O'), ('Lipofectamine', 'O'), ('2000', 'O'), ('and', 'O'), ('TRIZOL', 'O'), ('reagents', 'O'), ('were', 'O'), ('purchased', 'O'), ('from', 'O'), ('Invitrogen', 'O')]"
"[('CDK8', 'O'), ('monoclonal', 'O'), ('antibody', 'O'), ('was', 'O'), ('purchased', 'O'), ('from', 'O'), ('Cell', 'O'), ('Signaling', 'O'), ('Company', 'O')]"
"[('BCA', 'O'), ('protein', 'O'), ('concentration', 'O'), ('assay', 'O'), ('kit', 'O'), ('was', 'O'), ('purchased', 'O'), ('from', 'O'), ('Beyotime', 'O'), ('Biotechnology', 'O'), ('Research', 'O'), ('Institute', 'O')]"
"[('CellTiter', 'O'), ('96AQueous', 'O'), ('One', 'O'), ('Solution', 'O'), ('Cell', 'O'), ('Proliferation', 'O'), ('Assay', 'O'), ('kit', 'O'), ('for', 'O'), ('MTS', 'B-prge'), ('purchased', 'O'), ('from', 'O'), ('Promega', 'O')]"
"[('Transwell', 'O'), ('chambers', 'O'), ('were', 'O'), ('purchased', 'O'), ('from', 'O'), ('Corning', 'O')]"
"[('The', 'O'), ('remaining', 'O'), ('chemical', 'O'), ('reagents', 'O'), ('were', 'O'), ('all', 'O'), ('analytical', 'O'), ('grade', 'O'), ('products', 'O')]"
"[('Cell', 'O'), ('culture', 'O'), ('Human', 'O'), ('breast', 'O'), ('cancer', 'O'), ('cells', 'O'), ('MDA', 'B-prge'), ('-', 'I-prge'), ('MB', 'B-prge'), ('-', 'I-prge'), ('231', 'I-prge'), ('MDA', 'B-prge'), ('-', 'I-prge'), ('MB', 'B-prge'), ('-', 'I-prge'), ('231', 'I-prge'), ('and', 'O'), ('MCF', 'B-prge'), ('-', 'I-prge'), ('7', 'I-prge'), ('were', 'O'), ('cultured', 'O'), ('in', 'O'), ('DMEM/high', 'O'), ('glucose', 'O'), ('93', 'O'), ('medium', 'O'), ('containing', 'O'), ('10%', 'O'), ('fetal', 'O'), ('bovine', 'O'), ('serum', 'O'), ('at', 'O'), ('37°C,', 'O'), ('5%', 'O'), ('CO2', 'B-prge')]"
"[('Cell', 'O'), ('were', 'O'), ('passaged', 'O'), ('every', 'O'), ('other', 'O'), ('day', 'O'), ('using', 'O'), ('25', 'O'), ('cm2', 'O'), ('cell', 'O'), ('culture', 'O'), ('flasks', 'O'), ('and', 'O'), ('maintained', 'O'), ('in', 'O'), ('good', 'O'), ('condition', 'O')]"
"[('siRNA', 'O'), ('transfection', 'O'), ('The', 'O'), ('Sense', 'O'), ('of', 'O'), ('the', 'O'), ('siRNA', 'O'), ('were', 'O'), ('as', 'O'), ('follows:', 'O'), ('5’GGGAAUGGUGAAGUCACUAUUAUAUTT', 'B-prge'), ('-', 'I-prge'), ('3’', 'I-prge'), ('and', 'O'), ('Anti', 'B-prge'), ('-', 'I-prge'), ('sense', 'I-prge'), ('were', 'O'), ('5’', 'B-prge'), ('-', 'I-prge'), ('AUAUAAUAGUGACUUCACCAUUCCCTT', 'B-prge'), ('-', 'I-prge'), ('3’', 'I-prge'), ('5’', 'B-prge'), ('-', 'I-prge'), ('AUAUAAUAGUGACUUCACCAUUCCCTT', 'B-prge'), ('-', 'I-prge'), ('3’', 'I-prge')]"
"[('The', 'O'), ('Sense', 'O'), ('of', 'O'), ('negative', 'O'), ('control', 'O'), ('RNA', 'O'), ('(NC)', 'O'), ('were', 'O'), ('as', 'O'), ('follows:', 'O'), ('5’', 'B-prge'), ('-', 'I-prge'), ('UUCUCCGAACGUGUCACGUTT', 'B-prge'), ('-', 'I-prge'), ('3’', 'I-prge'), ('5’', 'B-prge'), ('-', 'I-prge'), ('UUCUCCGAACGUGUCACGUTT', 'B-prge'), ('-', 'I-prge'), ('3’', 'I-prge'), ('and', 'O'), ('Anti', 'B-prge'), ('-', 'I-prge'), ('sense', 'I-prge'), ('were', 'O'), ('5’ACGUGACACGUUCGGAGAATT', 'B-prge'), ('-', 'I-prge'), ('3’', 'I-prge')]"
"[('MDA', 'B-prge'), ('-', 'I-prge'), ('MB', 'B-prge'), ('-', 'I-prge'), ('231', 'I-prge'), ('MDA', 'B-prge'), ('-', 'I-prge'), ('MB', 'B-prge'), ('-', 'I-prge'), ('231', 'I-prge'), ('and', 'O'), ('MCF', 'B-prge'), ('-', 'I-prge'), ('7', 'I-prge'), ('cells', 'O'), ('were', 'O'), ('cultured', 'O'), ('in', 'O'), ('6', 'B-prge'), ('-', 'I-prge'), ('well', 'I-prge'), ('plates', 'O'), ('until', 'O'), ('50%', 'B-prge'), ('-', 'I-prge'), ('60%', 'I-prge'), ('confluence,', 'O'), ('transfected', 'O'), ('with', 'O'), ('siRNAs', 'O'), ('or', 'O'), ('NC', 'B-prge'), ('with', 'O'), ('a', 'O'), ('final', 'O'), ('concentration', 'O'), ('100', 'O'), ('nM', 'O'), ('using', 'O'), ('Lipofectamine', 'O'), ('2000,', 'O'), ('according', 'O'), ('to', 'O'), ('the', 'O'), ('manufacturer’s', 'O'), ('instructions', 'O')]"
"[('At', 'O'), ('48', 'O'), ('h', 'O'), ('after', 'O'), ('transfection,', 'O'), ('cells', 'O'), ('were', 'O'), ('harvested', 'O'), ('for', 'O'), ('qRT', 'B-prge'), ('-', 'I-prge'), ('PCR', 'O'), ('or', 'O'), ('Western', 'O'), ('Blotting', 'O'), ('analyses', 'O')]"
"[('RNA', 'O'), ('extraction,', 'O'), ('cDNA', 'O'), ('preparation,', 'O'), ('and', 'O'), ('realtime', 'O'), ('quantitative', 'O'), ('PCR', 'O'), ('analysis', 'O'), ('Total', 'O'), ('RNA', 'O'), ('was', 'O'), ('extracted', 'O'), ('from', 'O'), ('cells', 'O'), ('using', 'O'), ('the', 'O'), ('TRIZOL', 'O'), ('reagent', 'O'), ('(Invitrogen)', 'O')]"
"[('The', 'O'), ('reverse', 'O'), ('transcription', 'O'), ('reaction', 'O'), ('was', 'O'), ('performed', 'O'), ('using', 'O'), ('SuperScript', 'O'), ('III', 'O'), ('Reverse', 'O'), ('Transcriptase', 'O'), ('kit', 'O'), ('(Invitrogen)', 'O'), ('with', 'O'), ('a', 'O'), ('random', 'O'), ('hexamer', 'O')]"
"[('Real', 'B-prge'), ('-', 'I-prge'), ('time', 'I-prge'), ('quantitative', 'O'), ('PCR', 'O'), ('was', 'O'), ('performed', 'O'), ('using', 'O'), ('the', 'O'), ('SYBR', 'B-prge'), ('-', 'I-prge'), ('Green', 'O'), ('Master', 'O'), ('PCR', 'O'), ('Mix', 'O'), ('kit', 'O'), ('(TAKARA)', 'O')]"
"[('Expression', 'O'), ('of', 'O'), ('mRNA', 'O'), ('was', 'O'), ('assessed', 'O'), ('by', 'O'), ('evaluating', 'O'), ('threshold', 'O'), ('cycle', 'O'), ('(CT)', 'O'), ('values', 'O')]"
"[('The', 'O'), ('CT', 'O'), ('values', 'O'), ('of', 'O'), ('the', 'O'), ('CDK8', 'O'), ('were', 'O'), ('normalized', 'O'), ('with', 'O'), ('the', 'O'), ('expression', 'O'), ('level', 'O'), ('of', 'O'), ('GAPDH', 'B-prge')]"
"[('The', 'O'), ('quantification', 'O'), ('experiment', 'O'), ('was', 'O'), ('done', 'O'), ('in', 'O'), ('triplicate', 'O'), ('for', 'O'), ('every', 'O'), ('sample', 'O')]"
"[('The', 'O'), ('primer', 'O'), ('sequences', 'O'), ('were', 'O'), ('as', 'O'), ('follows:', 'O'), ('5’', 'B-prge'), ('-', 'I-prge'), ('GGGATCTCTATGTCGGCATGTAG', 'B-prge'), ('-', 'I-prge'), ('3’', 'I-prge'), ('5’', 'B-prge'), ('-', 'I-prge'), ('GGGATCTCTATGTCGGCATGTAG', 'B-prge'), ('-', 'I-prge'), ('3’', 'I-prge'), ('(forward)', 'O'), ('and', 'O'), ('5’', 'B-prge'), ('-', 'I-prge'), ('AAATGACGTTTGGATGCTTAAGC', 'B-prge'), ('-', 'I-prge'), ('3’', 'I-prge'), ('5’', 'B-prge'), ('-', 'I-prge'), ('AAATGACGTTTGGATGCTTAAGC', 'B-prge'), ('-', 'I-prge'), ('3’', 'I-prge'), ('(reverse)', 'O'), ('for', 'O'), ('CDK8;', 'B-prge'), ('5’', 'B-prge'), ('-', 'I-prge'), ('CATGAGAAGTATGACAACAGCCT', 'B-prge'), ('-', 'I-prge'), ('3’', 'I-prge'), ('5’', 'B-prge'), ('-', 'I-prge'), ('CATGAGAAGTATGACAACAGCCT', 'B-prge'), ('-', 'I-prge'), ('3’', 'I-prge'), ('(forward)', 'O'), ('and', 'O'), ('5’', 'B-prge'), ('-', 'I-prge'), ('AGTCCTTCCACGATACCAAAGT3’', 'O'), ('(reverse)', 'O'), ('for', 'O'), ('GAPDH', 'B-prge')]"
"[('Western', 'O'), ('Blotting', 'O'), ('analysis', 'O'), ('Western', 'O'), ('Blotting', 'O'), ('was', 'O'), ('performed', 'O'), ('according', 'O'), ('to', 'O'), ('the', 'O'), ('procedure', 'O'), ('described', 'O'), ('by', 'O'), ('Al', 'B-prge'), ('-', 'I-prge'), ('Madhagi', 'O'), ('et', 'O'), ('al', 'O')]"
"[('[9]', 'O')]"
"[('Briefly,', 'O'), ('breast', 'O'), ('cancer', 'O'), ('cell', 'O'), ('lines,', 'O'), ('MDAMB', 'B-prge'), ('-', 'I-prge'), ('231', 'I-prge'), ('and', 'O'), ('MCF', 'B-prge'), ('-', 'I-prge'), ('7', 'I-prge'), ('were', 'O'), ('divided', 'O'), ('into', 'O'), ('two', 'O'), ('groups:', 'O'), ('siRNA', 'O'), ('group,', 'O'), ('the', 'O'), ('negative', 'O'), ('control', 'O'), ('group', 'O')]"
"[('They', 'O'), ('were', 'O'), ('cultured', 'O'), ('and', 'O'), ('transfected', 'O'), ('with', 'O'), ('CDK8', 'B-prge'), ('-', 'I-prge'), ('siRNA', 'O'), ('as', 'O'), ('described', 'O'), ('above', 'O')]"
"[('After', 'O'), ('48', 'O'), ('h', 'O'), ('of', 'O'), ('incubation,', 'O'), ('the', 'O'), ('cell', 'O'), ('media', 'O'), ('were', 'O'), ('removed,', 'O'), ('and', 'O'), ('the', 'O'), ('cells', 'O'), ('were', 'O'), ('washed', 'O'), ('twice', 'O'), ('with', 'O'), ('PBS', 'B-prge')]"
"[('Then,', 'O'), ('Int', 'O'), ('J', 'O'), ('Clin', 'O'), ('Exp', 'O'), ('Pathol', 'O'), ('2014;7(1):92', 'B-prge'), ('-', 'I-prge'), ('100', 'I-prge'), ('CDK8', 'O'), ('and', 'O'), ('breast', 'O'), ('cancer', 'O'), ('Figure', 'B-prge'), ('1', 'O')]"
"[('The', 'O'), ('evaluation', 'O'), ('of', 'O'), ('CDK8', 'O'), ('knockdown', 'O'), ('at', 'O'), ('the', 'O'), ('RNA', 'O'), ('level', 'O'), ('by', 'O'), ('qRT', 'B-prge'), ('-', 'I-prge'), ('PCR', 'O')]"
"[('A.', 'O'), ('CDK8', 'O'), ('mRNA', 'O'), ('expression', 'O'), ('in', 'O'), ('MDAMB', 'B-prge'), ('-', 'I-prge'), ('231', 'I-prge'), ('cell', 'O')]"
"[('B.', 'O'), ('CDK8', 'O'), ('mRNA', 'O'), ('expression', 'O'), ('in', 'O'), ('MCF', 'B-prge'), ('-', 'I-prge'), ('7', 'I-prge'), ('cell', 'O')]"
"[('Graph', 'O'), ('represents', 'O'), ('the', 'O'), ('2', 'B-prge'), ('-', 'I-prge'), ('ΔΔCt', 'O'), ('values', 'O'), ('+', 'O'), ('SD,', 'O'), ('p', 'O'), ('<', 'O'), ('0.01', 'O')]"
"[('Figure', 'O'), ('2', 'O')]"
"[('Western', 'O'), ('Blotting', 'O'), ('images', 'O'), ('of', 'O'), ('CDK8', 'O'), ('protein', 'O'), ('in', 'O'), ('breast', 'O'), ('cancer', 'O'), ('cells', 'O')]"
"[('A', 'O')]"
"[('Western', 'O'), ('Blotting', 'O'), ('analysis', 'O'), ('of', 'O'), ('CDK8', 'O'), ('protein', 'O'), ('level,', 'O'), ('β', 'B-prge'), ('-', 'I-prge'), ('actin', 'B-prge'), ('was', 'O'), ('used', 'O'), ('as', 'O'), ('a', 'O'), ('loading', 'O'), ('control', 'O')]"
"[('B', 'B-prge')]"
"[('The', 'O'), ('expression', 'O'), ('level', 'O'), ('of', 'O'), ('CDK8', 'O'), ('in', 'O'), ('MDA', 'B-prge'), ('-', 'I-prge'), ('MB', 'B-prge'), ('-', 'I-prge'), ('231', 'I-prge'), ('MDA', 'B-prge'), ('-', 'I-prge'), ('MB', 'B-prge'), ('-', 'I-prge'), ('231', 'I-prge'), ('cells', 'O')]"
"[('C.', 'O'), ('The', 'O'), ('expression', 'O'), ('level', 'O'), ('of', 'O'), ('CDK8', 'O'), ('in', 'O'), ('MCF', 'B-prge'), ('-', 'I-prge'), ('7', 'I-prge'), ('cells', 'O')]"
"[('P', 'O'), ('<', 'O'), ('0.01.', 'O'), ('the', 'O'), ('total', 'O'), ('proteins', 'O'), ('were', 'O'), ('extracted', 'O'), ('from', 'O'), ('cell', 'O'), ('cultures', 'O'), ('using', 'O'), ('RIPA', 'O'), ('buffer', 'O'), ('(Beytime,', 'O'), ('Shanghai,', 'O'), ('China)', 'O')]"
"[('The', 'O'), ('protein', 'O'), ('amounts', 'O'), ('were', 'O'), ('measured', 'O'), ('using', 'O'), ('the', 'O'), ('BCA', 'O'), ('method', 'O')]"
"[('Thirty', 'O'), ('micrograms', 'O'), ('of', 'O'), ('total', 'O'), ('protein', 'O'), ('were', 'O'), ('separated', 'O'), ('by', 'O'), ('10%', 'O'), ('SDS', 'B-prge'), ('-', 'I-prge'), ('PAGE', 'B-prge'), ('and', 'O'), ('transferred', 'O'), ('to', 'O'), ('0.45', 'O'), ('μm', 'O'), ('NC', 'B-prge'), ('membrane', 'O')]"
"[('Membrane', 'O'), ('was', 'O'), ('blocked', 'O'), ('with', 'O'), ('5%', 'O'), ('skim', 'O'), ('milk', 'O'), ('for', 'O'), ('1', 'O'), ('h,', 'O'), ('and', 'O'), ('incubated', 'O'), ('with', 'O'), ('1:1000', 'O'), ('diluted', 'O'), ('CDK8', 'O'), ('monoclonal', 'O'), ('antibodies', 'O'), ('at', 'O'), ('4°C', 'O'), ('overnight', 'O')]"
"[('The', 'O'), ('membrane', 'O'), ('was', 'O'), ('then', 'O'), ('incubated', 'O'), ('with', 'O'), ('1:1000', 'O'), ('94', 'O'), ('diluted', 'O'), ('β', 'B-prge'), ('-', 'I-prge'), ('actin', 'B-prge'), ('antibody', 'O'), ('at', 'O'), ('room', 'O'), ('temperature', 'O'), ('for', 'O'), ('1', 'O'), ('h', 'O'), ('(Cell', 'O'), ('Signaling,', 'O'), ('USA),', 'O'), ('and', 'O'), ('then', 'O'), ('washed', 'O'), ('three', 'O'), ('times', 'O'), ('(10', 'O'), ('min', 'O'), ('each)', 'O'), ('with', 'O'), ('TBST,', 'O'), ('and', 'O'), ('detected', 'O'), ('with', 'O'), ('Odyssey', 'O'), ('system', 'O')]"
"[('Cell', 'O'), ('proliferation', 'O'), ('assay', 'O'), ('Cell', 'O'), ('proliferation', 'O'), ('was', 'O'), ('determined', 'O'), ('by', 'O'), ('MTS', 'B-prge'), ('assay', 'O')]"
"[('24', 'O'), ('h', 'O'), ('after', 'O'), ('transfection,', 'O'), ('cells', 'O'), ('were', 'O'), ('collected', 'O'), ('and', 'O'), ('approximately', 'O'), ('1×103', 'O'), ('cells', 'O'), ('were', 'O'), ('plated', 'O'), ('into', 'O'), ('Int', 'O'), ('J', 'O'), ('Clin', 'O'), ('Exp', 'O'), ('Pathol', 'O'), ('2014;7(1):92', 'B-prge'), ('-', 'I-prge'), ('100', 'I-prge'), ('CDK8', 'O'), ('and', 'O'), ('breast', 'O'), ('cancer', 'O'), ('Figure', 'O'), ('3', 'O')]"
"[('CDK8', 'B-prge'), ('-', 'I-prge'), ('siRNA', 'O'), ('inhibited', 'O'), ('cell', 'O'), ('proliferation', 'O')]"
"[('The', 'O'), ('MTS', 'B-prge'), ('assay', 'O'), ('was', 'O'), ('performed', 'O'), ('to', 'O'), ('measure', 'O'), ('the', 'O'), ('proliferation', 'O'), ('level', 'O'), ('of', 'O'), ('breast', 'O'), ('cancer', 'O'), ('cells', 'O'), ('transfected', 'O'), ('with', 'O'), ('CDK8', 'B-prge'), ('-', 'I-prge'), ('siRNA', 'O'), ('or', 'O'), ('non', 'B-prge'), ('-', 'I-prge'), ('silencing', 'I-prge'), ('control', 'O'), ('(NC)', 'O'), ('at', 'O'), ('the', 'O'), ('indicated', 'O'), ('concentrations', 'O')]"
"[('A.', 'O'), ('CDK8', 'B-prge'), ('-', 'I-prge'), ('siRNA', 'O'), ('inhibited', 'O'), ('MDA', 'B-prge'), ('-', 'I-prge'), ('MB', 'B-prge'), ('-', 'I-prge'), ('231', 'I-prge'), ('MDA', 'B-prge'), ('-', 'I-prge'), ('MB', 'B-prge'), ('-', 'I-prge'), ('231', 'I-prge'), ('cell', 'O'), ('proliferation', 'O'), ('(inhibition', 'O'), ('ratio', 'O'), ('=', 'O'), ('32.56%)', 'O'), ('at', 'O'), ('concentration', 'O'), ('of', 'O'), ('100', 'O'), ('nM', 'O'), ('for', 'O'), ('72', 'O'), ('h.', 'O'), ('B.', 'O'), ('CDK8', 'B-prge'), ('-', 'I-prge'), ('siRNA', 'O'), ('had', 'B-prge'), ('strongest', 'O'), ('inhibitory', 'O'), ('effect', 'O'), ('on', 'O'), ('MCF', 'B-prge'), ('-', 'I-prge'), ('7', 'I-prge'), ('cell', 'O'), ('proliferation', 'O'), ('(inhibition', 'O'), ('ratio', 'O'), ('up', 'O'), ('to', 'O'), ('49.23%)', 'O'), ('at', 'O'), ('concentration', 'O'), ('of', 'O'), ('100', 'O'), ('nM', 'O'), ('for', 'O'), ('72', 'O'), ('h.', 'O'), ('Graph', 'O'), ('represented', 'O'), ('OD', 'B-prge'), ('at', 'O'), ('490', 'O'), ('nm', 'O'), ('±', 'O'), ('SD,', 'O'), ('p', 'O'), ('<', 'O'), ('0.05', 'O')]"
"[('96', 'B-prge'), ('-', 'I-prge'), ('well', 'I-prge'), ('plates,', 'O'), ('which', 'O'), ('were', 'O'), ('treated', 'O'), ('for', 'O'), ('24', 'O'), ('h,', 'O'), ('48', 'O'), ('h,', 'O'), ('72', 'O'), ('h,', 'O'), ('and', 'O'), ('96', 'O'), ('h', 'O'), ('respectively,', 'O'), ('and', 'O'), ('then', 'O'), ('20', 'O'), ('μL', 'O'), ('of', 'O'), ('MTS', 'B-prge'), ('solution', 'O'), ('was', 'O'), ('added', 'O'), ('to', 'O'), ('each', 'O'), ('well', 'O')]"
"[('Plates', 'O'), ('were', 'O'), ('incubated', 'O'), ('at', 'O'), ('37°C', 'O'), ('for', 'O'), ('4', 'O'), ('h.', 'O'), ('The', 'O'), ('optical', 'O'), ('density', 'O'), ('(OD)', 'O'), ('at', 'O'), ('490', 'O'), ('nm', 'O'), ('was', 'O'), ('determined', 'O'), ('with', 'O'), ('microplate', 'O'), ('reader', 'O'), ('(BioTek)', 'O')]"
"[('0.1%', 'O'), ('crystal', 'O'), ('violet,', 'O'), ('washed', 'O'), ('for', 'O'), ('three', 'O'), ('times', 'O'), ('with', 'O'), ('running', 'O'), ('water,', 'O'), ('and', 'O'), ('then', 'O'), ('photographed', 'O')]"
"[('Membrane', 'O'), ('-', 'I-prge'), ('binding', 'I-prge'), ('crystal', 'O'), ('violet', 'O'), ('was', 'O'), ('dissolved', 'O'), ('with', 'O'), ('300', 'O'), ('μl', 'O'), ('33%', 'O'), ('glacial', 'O'), ('acetic', 'O'), ('acid,', 'O'), ('and', 'O'), ('then', 'O'), ('absorbance', 'O'), ('at', 'O'), ('573', 'O'), ('nm', 'O'), ('was', 'O'), ('measured', 'O'), ('using', 'O'), ('microplate', 'O'), ('reader', 'O')]"
"[('Cell', 'O'), ('colony', 'O'), ('formation', 'O'), ('assay', 'O'), ('Cell', 'O'), ('cycle', 'O'), ('analysis', 'O'), ('The', 'O'), ('MDA', 'B-prge'), ('-', 'I-prge'), ('MB', 'B-prge'), ('-', 'I-prge'), ('231/siRNA', 'O'), ('MDA', 'B-prge'), ('-', 'I-prge'), ('MB', 'B-prge'), ('-', 'I-prge'), ('231/siRNA', 'O'), ('or', 'O'), ('NC', 'B-prge'), ('and', 'O'), ('MCF', 'B-prge'), ('-', 'I-prge'), ('7/', 'I-prge'), ('siRNA', 'O'), ('or', 'O'), ('NC', 'B-prge'), ('cells', 'O'), ('were', 'O'), ('seeded', 'O'), ('in', 'O'), ('6', 'B-prge'), ('-', 'I-prge'), ('well', 'I-prge'), ('plates', 'O'), ('and', 'O'), ('were', 'O'), ('incubated', 'O'), ('at', 'O'), ('37°C', 'O'), ('for', 'O'), ('1', 'O'), ('week', 'O')]"
"[('The', 'O'), ('medium', 'O'), ('was', 'O'), ('replaced', 'O'), ('every', 'O'), ('3', 'O'), ('days', 'O')]"
"[('After', 'O'), ('washing', 'O'), ('twice', 'O'), ('with', 'O'), ('PBS,', 'O'), ('the', 'O'), ('colonies', 'O'), ('were', 'O'), ('fixed', 'O'), ('with', 'O'), ('4%', 'O'), ('paraformaldehyde', 'O'), ('for', 'O'), ('30', 'O'), ('min', 'O'), ('and', 'O'), ('stained', 'O'), ('with', 'O'), ('giemsa', 'O'), ('for', 'O'), ('10', 'O'), ('min', 'O')]"
"[('Then,', 'O'), ('the', 'O'), ('visible', 'O'), ('colonies', 'O'), ('were', 'O'), ('counted', 'O')]"
"[('The', 'O'), ('cell', 'O'), ('cycle', 'O'), ('distributions', 'O'), ('in', 'O'), ('the', 'O'), ('infected', 'O'), ('cells', 'O'), ('were', 'O'), ('analyzed', 'O'), ('using', 'O'), ('flow', 'O'), ('cytometer', 'O'), ('following', 'O'), ('propidium', 'O'), ('iodide', 'O'), ('(PI)', 'O'), ('staining', 'O')]"
"[('The', 'O'), ('infected', 'O'), ('cells', 'O'), ('were', 'O'), ('seeded', 'O'), ('on', 'O'), ('6', 'B-prge'), ('-', 'I-prge'), ('well', 'I-prge'), ('plates', 'O'), ('at', 'O'), ('a', 'O'), ('cell', 'O'), ('density', 'O'), ('of', 'O'), ('2.5×105', 'O')]"
"[('After', 'O'), ('48', 'O'), ('h', 'O'), ('the', 'O'), ('cells', 'O'), ('were', 'O'), ('collected,', 'O'), ('washed', 'O'), ('with', 'O'), ('ice', 'B-prge'), ('cold', 'O'), ('PBS', 'B-prge'), ('and', 'O'), ('were', 'O'), ('fixed', 'O'), ('with', 'O'), ('75%', 'O'), ('ethanol', 'O'), ('and', 'O'), ('incubated', 'O'), ('for', 'O'), ('another', 'O'), ('30', 'O'), ('min', 'O'), ('at', 'O'), ('4°C', 'O')]"
"[('The', 'O'), ('ethanol', 'O'), ('was', 'O'), ('removed', 'O'), ('by', 'O'), ('centrifugation', 'O'), ('and', 'O'), ('the', 'O'), ('remaining', 'O'), ('cell', 'O'), ('pellets', 'O'), ('were', 'O'), ('suspended', 'O'), ('in', 'O'), ('100', 'O'), ('μg/ml', 'O'), ('of', 'O'), ('DNase', 'B-prge'), ('-', 'I-prge'), ('free', 'I-prge'), ('RNase', 'O'), ('for', 'O'), ('30', 'O'), ('min', 'O'), ('at', 'O'), ('37°C', 'O')]"
"[('Finally,', 'O'), ('the', 'O'), ('PI', 'O'), ('solution', 'O'), ('(100', 'O'), ('μg/ml)', 'O'), ('was', 'O'), ('added', 'O'), ('to', 'O'), ('the', 'O'), ('cell', 'O'), ('suspension', 'O'), ('and', 'O'), ('analyzed', 'O'), ('by', 'O'), ('flow', 'O'), ('cytometer', 'O'), ('(FACS', 'O'), ('Calibur,', 'O'), ('BD', 'B-prge'), ('Biosciences)', 'O'), ('after', 'O'), ('filtering', 'O'), ('through', 'O'), ('a', 'O'), ('50', 'O'), ('μm', 'O'), ('nylon', 'O'), ('mesh', 'O')]"
"[('Transwell', 'O'), ('experiment', 'O'), ('In', 'O'), ('accordance', 'O'), ('with', 'O'), ('Transwell', 'O'), ('chamber', 'O'), ('instructions,', 'O'), ('DMEM/high', 'O'), ('glucose', 'O'), ('medium', 'O'), ('containing', 'O'), ('10%', 'O'), ('FBS', 'O'), ('was', 'O'), ('added', 'O'), ('to', 'O'), ('the', 'O'), ('lower', 'O'), ('chamber', 'O'), ('while', 'O'), ('MDA', 'B-prge'), ('-', 'I-prge'), ('MB', 'B-prge'), ('-', 'I-prge'), ('231', 'I-prge'), ('MDA', 'B-prge'), ('-', 'I-prge'), ('MB', 'B-prge'), ('-', 'I-prge'), ('231', 'I-prge'), ('and', 'O'), ('MCF', 'B-prge'), ('-', 'I-prge'), ('7', 'I-prge'), ('cells', 'O'), ('suspension', 'O'), ('transfected', 'O'), ('with', 'O'), ('siRNA', 'O'), ('or', 'O'), ('NC', 'B-prge'), ('for', 'O'), ('48', 'O'), ('h', 'O'), ('was', 'O'), ('added', 'O'), ('to', 'O'), ('the', 'O'), ('upper', 'O'), ('chamber', 'O')]"
"[('After', 'O'), ('incubation', 'O'), ('at', 'O'), ('37°C,', 'O'), ('5%', 'O'), ('CO2', 'B-prge'), ('for', 'O'), ('12', 'B-prge'), ('-', 'I-prge'), ('18', 'I-prge'), ('h,', 'O'), ('the', 'O'), ('lower', 'O'), ('chamber', 'O'), ('was', 'O'), ('observed', 'O'), ('using', 'O'), ('inverted', 'O'), ('microscope', 'O')]"
"[('Incubation', 'O'), ('was', 'O'), ('terminated', 'O'), ('when', 'O'), ('cells', 'O'), ('passed', 'O'), ('into', 'O'), ('lower', 'O'), ('chamber', 'O')]"
"[('Inside', 'O'), ('of', 'O'), ('the', 'O'), ('upper', 'O'), ('chamber', 'O'), ('was', 'O'), ('cleaned', 'O'), ('with', 'O'), ('a', 'O'), ('cotton', 'O'), ('swab', 'O')]"
"[('Lower', 'O'), ('chamber', 'O'), ('was', 'O'), ('immersed', 'O'), ('and', 'O'), ('washed', 'O'), ('with', 'O'), ('PBS,', 'O'), ('fixed', 'O'), ('with', 'O'), ('4%', 'O'), ('paraformaldehyde,', 'O'), ('stained', 'O'), ('with', 'O'), ('95', 'O'), ('Statistical', 'O'), ('analysis', 'O'), ('All', 'O'), ('results', 'O'), ('represent', 'O'), ('the', 'O'), ('mean', 'O'), ('±', 'O'), ('standard', 'O'), ('deviation', 'O'), ('from', 'O'), ('three', 'O'), ('independent', 'O'), ('experiments', 'O')]"
"[('The', 'O'), ('Students', 'O'), ('t', 'O'), ('test', 'O'), ('was', 'O'), ('used', 'O'), ('to', 'O'), ('evaluate', 'O'), ('the', 'O'), ('differences', 'O'), ('between', 'O'), ('the', 'O'), ('control', 'O'), ('cells', 'O'), ('and', 'O'), ('CDK8', 'O'), ('silenced', 'O'), ('cells', 'O'), ('in', 'O'), ('SPSS', 'O'), ('13.0', 'O'), ('software', 'O')]"
"[('Significant', 'O'), ('significance', 'O'), ('was', 'O'), ('set', 'O'), ('at', 'O'), ('p', 'O'), ('<', 'O'), ('0.05', 'O')]"
"[('Int', 'O'), ('J', 'O'), ('Clin', 'O'), ('Exp', 'O'), ('Pathol', 'O'), ('2014;7(1):92', 'B-prge'), ('-', 'I-prge'), ('100', 'I-prge'), ('CDK8', 'O'), ('and', 'O'), ('breast', 'O'), ('cancer', 'O'), ('Figure', 'O'), ('4', 'O')]"
"[('CDK8', 'B-prge'), ('-', 'I-prge'), ('siRNA', 'O'), ('inhibited', 'O'), ('breast', 'O'), ('cancer', 'O'), ('cell', 'O'), ('colony', 'O'), ('formation', 'O')]"
"[('A', 'O'), ('and', 'O'), ('B', 'B-prge')]"
"[('Representative', 'O'), ('images', 'O'), ('of', 'O'), ('crystal', 'O'), ('violet', 'O'), ('stained', 'O'), ('colonies', 'O'), ('in', 'O'), ('MDA', 'B-prge'), ('-', 'I-prge'), ('MB', 'B-prge'), ('-', 'I-prge'), ('231', 'I-prge'), ('MDA', 'B-prge'), ('-', 'I-prge'), ('MB', 'B-prge'), ('-', 'I-prge'), ('231', 'I-prge'), ('and', 'O'), ('MCF', 'B-prge'), ('-', 'I-prge'), ('7', 'I-prge'), ('cells', 'O'), ('transfected', 'O'), ('with', 'O'), ('CDK8', 'B-prge'), ('-', 'I-prge'), ('siRNA', 'O'), ('or', 'O'), ('NC', 'B-prge')]"
"[('C.', 'O'), ('Cloning', 'O'), ('efficiency', 'O'), ('in', 'O'), ('two', 'O'), ('breast', 'O'), ('cancer', 'O'), ('cells,', 'O'), ('P', 'O'), ('<', 'O'), ('0.01', 'O')]"
"[('Results', 'O'), ('CDK8', 'O'), ('expression', 'O'), ('down', 'O'), ('regulation', 'O'), ('by', 'O'), ('CDK8siRNA', 'O'), ('The', 'O'), ('Lipofectamine', 'O'), ('2000', 'O'), ('carrying', 'O'), ('the', 'O'), ('CDK8siRNA', 'O'), ('or', 'O'), ('negative', 'O'), ('control', 'O'), ('siRNA', 'O'), ('were', 'O'), ('infected', 'O'), ('into', 'O'), ('MDA', 'B-prge'), ('-', 'I-prge'), ('MB', 'B-prge'), ('-', 'I-prge'), ('231', 'I-prge'), ('MDA', 'B-prge'), ('-', 'I-prge'), ('MB', 'B-prge'), ('-', 'I-prge'), ('231', 'I-prge'), ('and', 'O'), ('MCF', 'B-prge'), ('-', 'I-prge'), ('7', 'I-prge'), ('cells', 'O')]"
"[('After', 'O'), ('48', 'O'), ('h,', 'O'), ('to', 'O'), ('determine', 'O'), ('the', 'O'), ('effect', 'O'), ('of', 'O'), ('siRNA', 'O'), ('on', 'O'), ('the', 'O'), ('endogenous', 'O'), ('expression', 'O'), ('of', 'O'), ('CDK8', 'O')]"
"[('As', 'O'), ('shown', 'O'), ('in', 'O'), ('Figure', 'B-prge'), ('1', 'O'), ('both', 'O'), ('the', 'O'), ('breast', 'O'), ('cancer', 'O'), ('cells', 'O'), ('were', 'O'), ('successfully', 'O'), ('infected', 'O'), ('with', 'O'), ('the', 'O'), ('CDK8', 'B-prge'), ('-', 'I-prge'), ('siRNA', 'O'), ('by', 'O'), ('real', 'O'), ('time', 'O'), ('PCR,', 'O'), ('(p', 'O'), ('<', 'O'), ('0.01)', 'O')]"
"[('Further', 'O'), ('the', 'O'), ('gene', 'O'), ('expression', 'O'), ('levels', 'O'), ('of', 'O'), ('CDK8', 'O'), ('following', 'O'), ('CDK8', 'B-prge'), ('-', 'I-prge'), ('siRNA', 'O'), ('infection', 'O'), ('was', 'O'), ('observed', 'O'), ('by', 'O'), ('Western', 'O'), ('Blotting', 'O'), ('analysis', 'O')]"
"[('As', 'O'), ('shown', 'O'), ('in', 'O'), ('Figure', 'O'), ('2', 'O'), ('the', 'O'), ('CDK8', 'O'), ('protein', 'O'), ('expression', 'O'), ('was', 'O'), ('also', 'O'), ('markedly', 'O'), ('inhibited', 'O'), ('due', 'O'), ('to', 'O'), ('CDK8', 'B-prge'), ('-', 'I-prge'), ('siRNA', 'O'), ('infection', 'O'), ('in', 'O'), ('both', 'O'), ('MDA', 'B-prge'), ('-', 'I-prge'), ('MB', 'B-prge'), ('-', 'I-prge'), ('231', 'I-prge'), ('MDA', 'B-prge'), ('-', 'I-prge'), ('MB', 'B-prge'), ('-', 'I-prge'), ('231', 'I-prge'), ('(Figure', 'O'), ('2A)', 'O'), ('and', 'O'), ('MCF', 'B-prge'), ('-', 'I-prge'), ('7', 'I-prge'), ('cells', 'O'), ('(Figure', 'O'), ('2B),', 'O'), ('(p', 'O'), ('<', 'O'), ('0.01)', 'O')]"
"[('Therefore,', 'O'), ('it', 'O'), ('was', 'O'), ('confirmed', 'O'), ('that', 'O'), ('the', 'O'), ('CDK8', 'B-prge'), ('-', 'I-prge'), ('siRNA', 'O'), ('is', 'O'), ('an', 'O'), ('effective', 'O'), ('method', 'O'), ('to', 'O'), ('reduce', 'O'), ('the', 'O'), ('higher', 'O'), ('expression', 'O'), ('level', 'O'), ('of', 'O'), ('CDK8', 'O'), ('in', 'O'), ('breast', 'O'), ('cancer', 'O'), ('cells', 'O')]"
"[('CDK8', 'B-prge'), ('-', 'I-prge'), ('siRNA', 'O'), ('infection', 'O'), ('suppressed', 'O'), ('the', 'O'), ('proliferation', 'O'), ('of', 'O'), ('breast', 'O'), ('cancer', 'O'), ('cells', 'O'), ('The', 'O'), ('effect', 'O'), ('of', 'O'), ('silencing', 'O'), ('CDK8', 'O'), ('on', 'O'), ('breast', 'O'), ('cancer', 'O'), ('cell', 'O'), ('proliferation', 'O'), ('was', 'O'), ('analyzed', 'O'), ('by', 'O'), ('MTS', 'B-prge'), ('assay', 'O')]"
"[('96', 'O'), ('Inhibition', 'O'), ('rate', 'O'), ('was', 'O'), ('calculated', 'O'), ('as', 'O'), ('following:', 'O'), ('inhibition', 'O'), ('rate', 'O'), ('(%)', 'O'), ('=', 'O'), ('(OD', 'B-prge'), ('value', 'O'), ('of', 'O'), ('the', 'O'), ('control', 'O'), ('group', 'B-prge'), ('-', 'I-prge'), ('OD', 'B-prge'), ('value', 'O'), ('of', 'O'), ('experimental', 'O'), ('group)', 'O'), ('/', 'O'), ('OD', 'B-prge'), ('value', 'O'), ('of', 'O'), ('control', 'O'), ('group', 'O'), ('×', 'O'), ('100%', 'O')]"
"[('It', 'O'), ('could', 'O'), ('be', 'O'), ('clearly', 'O'), ('observed', 'O'), ('that', 'O'), ('the', 'O'), ('proliferation', 'O'), ('of', 'O'), ('both', 'O'), ('CDK8siRNA', 'O'), ('infected', 'O'), ('in', 'O'), ('MDA', 'B-prge'), ('-', 'I-prge'), ('MB', 'B-prge'), ('-', 'I-prge'), ('231', 'I-prge'), ('MDA', 'B-prge'), ('-', 'I-prge'), ('MB', 'B-prge'), ('-', 'I-prge'), ('231', 'I-prge'), ('and', 'O'), ('MCF', 'B-prge'), ('-', 'I-prge'), ('7', 'I-prge'), ('cells', 'O'), ('proliferation', 'O'), ('was', 'O'), ('time', 'B-prge'), ('-', 'I-prge'), ('and', 'I-prge'), ('dosage', 'B-prge'), ('-', 'I-prge'), ('dependent', 'I-prge'), ('decreased', 'O')]"
"[('At', 'O'), ('a', 'O'), ('concentration', 'O'), ('of', 'O'), ('100', 'O'), ('nmol/L', 'O'), ('at', 'O'), ('72', 'O'), ('h,', 'O'), ('the', 'O'), ('cell', 'O'), ('viability', 'O'), ('was', 'O'), ('significantly', 'O'), ('(p', 'O'), ('<', 'O'), ('0.05)', 'O'), ('reduced', 'O'), ('in', 'O'), ('both', 'O'), ('cell', 'O'), ('lines', 'O'), ('compared', 'O'), ('to', 'O'), ('the', 'O'), ('non', 'B-prge'), ('-', 'I-prge'), ('silencing', 'I-prge'), ('control', 'O'), ('siRNA', 'O'), ('infected', 'O'), ('cell', 'O'), ('groups', 'O')]"
"[('Inhibition', 'O'), ('rate', 'O'), ('(%)', 'O'), ('of', 'O'), ('MDA', 'B-prge'), ('-', 'I-prge'), ('MB', 'B-prge'), ('-', 'I-prge'), ('231', 'I-prge'), ('MDA', 'B-prge'), ('-', 'I-prge'), ('MB', 'B-prge'), ('-', 'I-prge'), ('231', 'I-prge'), ('cell', 'O'), ('was', 'O'), ('32.56%', 'O'), ('(Figure', 'O'), ('3A),', 'O'), ('and', 'O'), ('MCF', 'B-prge'), ('-', 'I-prge'), ('7', 'I-prge'), ('cell', 'O'), ('was', 'O'), ('49.23%', 'O'), ('(Figure', 'O'), ('3B)', 'O')]"
"[('These', 'O'), ('results', 'O'), ('indicate', 'O'), ('that', 'O'), ('the', 'O'), ('higher', 'O'), ('expression', 'O'), ('levels', 'O'), ('of', 'O'), ('CDK8', 'O'), ('are', 'O'), ('closely', 'O'), ('related', 'O'), ('to', 'O'), ('the', 'O'), ('proliferation', 'O'), ('of', 'O'), ('breast', 'O'), ('cancer', 'O'), ('cells', 'O')]"
"[('Colony', 'O'), ('formation', 'O'), ('of', 'O'), ('breast', 'O'), ('cancer', 'O'), ('cells', 'O'), ('were', 'O'), ('suppressed', 'O'), ('by', 'O'), ('the', 'O'), ('silencing', 'O'), ('of', 'O'), ('CDK8', 'O'), ('Both', 'O'), ('MDA', 'B-prge'), ('-', 'I-prge'), ('MB', 'B-prge'), ('-', 'I-prge'), ('231', 'I-prge'), ('MDA', 'B-prge'), ('-', 'I-prge'), ('MB', 'B-prge'), ('-', 'I-prge'), ('231', 'I-prge'), ('and', 'O'), ('MCF', 'B-prge'), ('-', 'I-prge'), ('7', 'I-prge'), ('cells', 'O'), ('are', 'O'), ('growing', 'O'), ('in', 'O'), ('groups', 'O'), ('and', 'O'), ('therefore', 'O'), ('the', 'O'), ('effect', 'O'), ('of', 'O'), ('CDK8', 'O'), ('silencing', 'O'), ('on', 'O'), ('this', 'O'), ('colony', 'O'), ('forming', 'O'), ('ability', 'O'), ('of', 'O'), ('breast', 'O'), ('cancer', 'O'), ('cells', 'O'), ('was', 'O'), ('investigated', 'O'), ('by', 'O'), ('performing', 'O'), ('colony', 'O'), ('formation', 'O'), ('assay', 'O'), ('following', 'O'), ('Giemsa', 'O'), ('staining', 'O')]"
"[('The', 'O'), ('number', 'O'), ('and', 'O'), ('the', 'O'), ('size', 'O'), ('of', 'O'), ('the', 'O'), ('colonies', 'O'), ('Int', 'O'), ('J', 'O'), ('Clin', 'O'), ('Exp', 'O'), ('Pathol', 'O'), ('2014;7(1):92', 'B-prge'), ('-', 'I-prge'), ('100', 'I-prge'), ('CDK8', 'O'), ('and', 'O'), ('breast', 'O'), ('cancer', 'O'), ('Figure', 'O'), ('5', 'O')]"
"[('CDK8', 'B-prge'), ('-', 'I-prge'), ('siRNA', 'O'), ('inhibited', 'O'), ('migration', 'O'), ('of', 'O'), ('breast', 'O'), ('cancer', 'O'), ('cells', 'O')]"
"[('Cell', 'O'), ('migration', 'O'), ('ability', 'O'), ('was', 'O'), ('analyzed', 'O'), ('by', 'O'), ('transwell', 'O'), ('chamber', 'O'), ('assay', 'O'), ('18', 'O'), ('h', 'O'), ('after', 'O'), ('CDK8', 'B-prge'), ('-', 'I-prge'), ('siRNA', 'O'), ('or', 'O'), ('NC', 'B-prge'), ('transfection', 'O')]"
"[('A', 'O')]"
"[('Representative', 'O'), ('images', 'O'), ('of', 'O'), ('crystal', 'O'), ('violet', 'O'), ('stained', 'O'), ('MDAMB', 'B-prge'), ('-', 'I-prge'), ('231', 'I-prge'), ('migratory', 'O'), ('cells', 'O'), ('transfected', 'O'), ('with', 'O'), ('CDK8', 'B-prge'), ('-', 'I-prge'), ('siRNA', 'O'), ('or', 'O'), ('NC', 'B-prge'), ('(p', 'O'), ('<', 'O'), ('0.05)', 'O')]"
"[('B', 'B-prge')]"
"[('Representative', 'O'), ('images', 'O'), ('of', 'O'), ('crystal', 'O'), ('violet', 'O'), ('stained', 'O'), ('MCF', 'B-prge'), ('-', 'I-prge'), ('7', 'I-prge'), ('migratory', 'O'), ('cells', 'O'), ('transfected', 'O'), ('with', 'O'), ('CDK8', 'B-prge'), ('-', 'I-prge'), ('siRNA', 'O'), ('or', 'O'), ('NC', 'B-prge'), ('(p', 'O'), ('<', 'O'), ('0.01)', 'O')]"
"[('C.', 'O'), ('Quantification', 'O'), ('of', 'O'), ('the', 'O'), ('migratory', 'O'), ('cells', 'O'), ('by', 'O'), ('solubilization', 'O'), ('of', 'O'), ('crystal', 'O'), ('violet', 'O'), ('and', 'O'), ('spectrophotometric', 'O'), ('reading', 'O'), ('at', 'O'), ('OD', 'B-prge'), ('573', 'O')]"
"[('Data', 'O'), ('represent', 'O'), ('mean', 'O'), ('+', 'O'), ('SD,', 'O'), ('p', 'O'), ('<', 'O'), ('0.05.', 'O'), ('were', 'O'), ('observed', 'O'), ('in', 'O'), ('both', 'O'), ('CDK8', 'B-prge'), ('-', 'I-prge'), ('siRNA', 'O'), ('infected', 'O'), ('cell', 'O'), ('group', 'O'), ('and', 'O'), ('the', 'O'), ('non', 'B-prge'), ('-', 'I-prge'), ('silencing', 'I-prge'), ('control', 'O'), ('siRNA', 'O'), ('infected', 'O'), ('group', 'O')]"
"[('Clone', 'O'), ('formation', 'O'), ('rate', 'O'), ('of', 'O'), ('CDK8siRNA', 'O'), ('transfected', 'O'), ('group', 'O'), ('(37', 'O'), ('±', 'O'), ('0.0543)', 'O'), ('was', 'O'), ('significantly', 'O'), ('lower', 'O'), ('than', 'O'), ('that', 'O'), ('of', 'O'), ('non', 'B-prge'), ('-', 'I-prge'), ('silencing', 'I-prge'), ('control', 'O'), ('group', 'O'), ('(157', 'O'), ('±', 'O'), ('0.0707)', 'O'), ('in', 'O'), ('MDA', 'B-prge'), ('-', 'I-prge'), ('MB', 'B-prge'), ('-', 'I-prge'), ('231', 'I-prge'), ('MDA', 'B-prge'), ('-', 'I-prge'), ('MB', 'B-prge'), ('-', 'I-prge'), ('231', 'I-prge'), ('cell', 'O'), ('(Figure', 'O'), ('4A),', 'O'), ('(p', 'O'), ('<', 'O'), ('0.01),', 'O'), ('and', 'O'), ('CDK8', 'B-prge'), ('-', 'I-prge'), ('siRNA', 'O'), ('transfected', 'O'), ('group', 'O'), ('(34', 'O'), ('±', 'O'), ('0.0447)', 'O'), ('was', 'O'), ('significantly', 'O'), ('lower', 'O'), ('compared', 'O'), ('to', 'O'), ('non', 'B-prge'), ('-', 'I-prge'), ('silencing', 'I-prge'), ('control', 'O'), ('group', 'O'), ('(117', 'O'), ('±', 'O'), ('0.0111)', 'O'), ('in', 'O'), ('MCF', 'B-prge'), ('-', 'I-prge'), ('7', 'I-prge'), ('cell', 'O'), ('(Figure', 'O'), ('4B),', 'O'), ('(p', 'O'), ('<', 'O'), ('0.01)', 'O')]"
"[('Collectively,', 'O'), ('these', 'O'), ('results', 'O'), ('strongly', 'O'), ('support', 'O'), ('that', 'O'), ('in', 'O'), ('the', 'O'), ('absence', 'O'), ('of', 'O'), ('CDK8', 'O'), ('both', 'O'), ('the', 'O'), ('number', 'O'), ('and', 'O'), ('the', 'O'), ('size', 'O'), ('of', 'O'), ('the', 'O'), ('colonies', 'O'), ('are', 'O'), ('suppressed', 'O'), ('(Figure', 'O'), ('4C)', 'O')]"
"[('CDK8', 'B-prge'), ('-', 'I-prge'), ('siRNA', 'O'), ('inhibits', 'O'), ('breast', 'O'), ('cancer', 'O'), ('cells', 'O'), ('migration', 'O'), ('in', 'O'), ('vitro', 'O'), ('Absorbance', 'O'), ('at', 'O'), ('573', 'O'), ('nm', 'O'), ('showed', 'O'), ('that', 'O'), ('breast', 'O'), ('cancer', 'O'), ('cells', 'O'), ('migrating', 'O'), ('out', 'O'), ('of', 'O'), ('chamber', 'O'), ('in', 'O'), ('100', 'O'), ('nM', 'O'), ('CDK8', 'B-prge'), ('-', 'I-prge'), ('siRNA', 'O'), ('group', 'O'), ('(0.54', 'O'), ('±', 'O'), ('0.0819)', 'O'), ('was', 'O'), ('statistically', 'O'), ('reduced', 'O'), ('than', 'O'), ('non', 'B-prge'), ('-', 'I-prge'), ('silencing', 'I-prge'), ('control', 'O'), ('group', 'O'), ('(0.967', 'O'), ('±', 'O'), ('0.0208)', 'O'), ('in', 'O'), ('MDA', 'B-prge'), ('-', 'I-prge'), ('MB', 'B-prge'), ('-', 'I-prge'), ('231', 'I-prge'), ('MDA', 'B-prge'), ('-', 'I-prge'), ('MB', 'B-prge'), ('-', 'I-prge'), ('231', 'I-prge'), ('cell', 'O'), ('(Figure', 'O'), ('5A),', 'O'), ('(P', 'O'), ('<', 'O'), ('0.05),', 'O'), ('and', 'O'), ('100', 'O'), ('nM', 'O'), ('CDK8', 'B-prge'), ('-', 'I-prge'), ('siRNA', 'O'), ('group', 'O'), ('(0.4', 'O'), ('±', 'O'), ('0.0100)', 'O'), ('was', 'O'), ('also', 'O'), ('reduced', 'O'), ('than', 'O'), ('nonsilencing', 'O'), ('control', 'O'), ('group', 'O'), ('(1.167', 'O'), ('±', 'O'), ('0.0153)', 'O'), ('in', 'O'), ('MCF', 'B-prge'), ('-', 'I-prge'), ('7', 'I-prge'), ('cell', 'O'), ('(Figure', 'O'), ('5B),', 'O'), ('(P', 'O'), ('<', 'O'), ('0.01)', 'O')]"
"[('The', 'O'), ('results', 'O'), ('indicating', 'O'), ('that', 'O'), ('CDK8', 'O'), ('could', 'O'), ('promote', 'O'), ('breast', 'O'), ('cancer', 'O'), ('cell', 'O'), ('migration', 'O'), ('(Figure', 'O'), ('5C)', 'O')]"
"[('97', 'O'), ('Infection', 'O'), ('with', 'O'), ('CDK8', 'B-prge'), ('-', 'I-prge'), ('siRNA', 'O'), ('arrested', 'O'), ('the', 'O'), ('cell', 'O'), ('cycle', 'O'), ('of', 'O'), ('breast', 'O'), ('cancer', 'O'), ('cells', 'O'), ('The', 'O'), ('effect', 'O'), ('of', 'O'), ('CDK8', 'O'), ('on', 'O'), ('the', 'O'), ('cell', 'O'), ('cycle', 'O'), ('progression', 'O'), ('was', 'O'), ('analyzed', 'O'), ('by', 'O'), ('flow', 'O'), ('cytometry', 'O'), ('by', 'O'), ('using', 'O'), ('both', 'O'), ('CDK8', 'B-prge'), ('-', 'I-prge'), ('siRNA', 'O'), ('and', 'O'), ('non', 'B-prge'), ('-', 'I-prge'), ('silencing', 'I-prge'), ('control', 'O'), ('siRNA', 'O'), ('in', 'O'), ('MDA', 'B-prge'), ('-', 'I-prge'), ('MB', 'B-prge'), ('-', 'I-prge'), ('231', 'I-prge'), ('MDA', 'B-prge'), ('-', 'I-prge'), ('MB', 'B-prge'), ('-', 'I-prge'), ('231', 'I-prge'), ('and', 'O'), ('MCF', 'B-prge'), ('-', 'I-prge'), ('7', 'I-prge'), ('cells', 'O')]"
"[('The', 'O'), ('FACS', 'O'), ('results', 'O'), ('indicated', 'O'), ('that', 'O'), ('CDK8', 'B-prge'), ('-', 'I-prge'), ('siRNA', 'O'), ('significantly', 'O'), ('increased', 'O'), ('the', 'O'), ('percentage', 'O'), ('of', 'O'), ('cells', 'O'), ('in', 'O'), ('G0/', 'O'), ('G1', 'O'), ('compared', 'O'), ('to', 'O'), ('non', 'B-prge'), ('-', 'I-prge'), ('silencing', 'I-prge'), ('siRNA', 'O')]"
"[('This', 'O'), ('increase', 'O'), ('in', 'O'), ('the', 'O'), ('G0/G1', 'B-prge'), ('phase', 'O'), ('was', 'O'), ('coupled', 'O'), ('with', 'O'), ('a', 'O'), ('significant', 'O'), ('decrease', 'O'), ('in', 'O'), ('the', 'O'), ('percentage', 'O'), ('of', 'O'), ('cells', 'O'), ('in', 'O'), ('S', 'O'), ('and', 'O'), ('G2', 'I-prge'), ('after', 'O'), ('48', 'O'), ('h', 'O'), ('of', 'O'), ('transfection', 'O')]"
"[('CDK8', 'B-prge'), ('-', 'I-prge'), ('siRNA', 'O'), ('could', 'O'), ('arrest', 'O'), ('cells', 'O'), ('in', 'O'), ('the', 'O'), ('G0/G1', 'B-prge'), ('phase', 'O'), ('at', 'O'), ('concentrations', 'O'), ('as', 'O'), ('low', 'O'), ('as', 'O'), ('50', 'O'), ('nM', 'O'), ('in', 'O'), ('MDA', 'B-prge'), ('-', 'I-prge'), ('MB', 'B-prge'), ('-', 'I-prge'), ('231', 'I-prge'), ('MDA', 'B-prge'), ('-', 'I-prge'), ('MB', 'B-prge'), ('-', 'I-prge'), ('231', 'I-prge'), ('(Figure', 'O'), ('6A', 'O'), ('and', 'O'), ('6C),', 'O'), ('(p', 'O'), ('<', 'O'), ('0.05),', 'O'), ('and', 'O'), ('MCF', 'B-prge'), ('-', 'I-prge'), ('7', 'I-prge'), ('cells', 'O'), ('required', 'O'), ('a', 'O'), ('higher', 'O'), ('concentration', 'O'), ('(100', 'O'), ('nM)', 'O'), ('of', 'O'), ('siRNA', 'O'), ('to', 'O'), ('show', 'O'), ('significant', 'O'), ('results', 'O'), ('(Figure', 'O'), ('6B', 'B-prge'), ('and', 'O'), ('6D),', 'O'), ('(p', 'O'), ('<', 'O'), ('0.05)', 'O')]"
"[('Discussion', 'O'), ('Breast', 'O'), ('cancer', 'O'), ('is', 'O'), ('the', 'O'), ('most', 'O'), ('common', 'O'), ('mortality', 'O'), ('cause', 'O'), ('of', 'O'), ('women', 'O'), ('worldwide', 'O'), ('despite', 'O'), ('of', 'O'), ('higher', 'O'), ('research', 'O'), ('on', 'O'), ('controlling', 'O'), ('the', 'O'), ('cancer', 'O'), ('progression', 'O'), ('[10]', 'O')]"
"[('Therefore,', 'O'), ('novel', 'O'), ('methods', 'O'), ('of', 'O'), ('cancer', 'O'), ('treatments', 'O'), ('are', 'O'), ('approached', 'O'), ('recently', 'O')]"
"[('Among', 'O'), ('them', 'O'), ('cancer', 'O'), ('therapy', 'O'), ('at', 'O'), ('the', 'O'), ('gene', 'O'), ('level', 'O'), ('through', 'O'), ('understanding', 'O'), ('of', 'O'), ('the', 'O'), ('molecular', 'O'), ('functions', 'O'), ('of', 'O'), ('cancer', 'O'), ('cell', 'O'), ('survival', 'O'), ('has', 'O'), ('gained', 'O'), ('more', 'O'), ('attention', 'O'), ('[11]', 'O')]"
"[('Int', 'O'), ('J', 'O'), ('Clin', 'O'), ('Exp', 'O'), ('Pathol', 'O'), ('2014;7(1):92', 'B-prge'), ('-', 'I-prge'), ('100', 'I-prge'), ('CDK8', 'O'), ('and', 'O'), ('breast', 'O'), ('cancer', 'O'), ('Figure', 'O'), ('6', 'O')]"
"[('CDK8', 'O'), ('affected', 'O'), ('cell', 'O'), ('cycle', 'O'), ('distribution', 'O')]"
"[('A', 'O')]"
"[('Cell', 'O'), ('cycle', 'O'), ('distribution', 'O'), ('was', 'O'), ('analyzed', 'O'), ('by', 'O'), ('flow', 'O'), ('cytometry', 'O'), ('48', 'O'), ('h', 'O'), ('after', 'O'), ('transfection', 'O'), ('of', 'O'), ('MDA', 'B-prge'), ('-', 'I-prge'), ('MB', 'B-prge'), ('-', 'I-prge'), ('231', 'I-prge'), ('MDA', 'B-prge'), ('-', 'I-prge'), ('MB', 'B-prge'), ('-', 'I-prge'), ('231', 'I-prge'), ('cells', 'O'), ('with', 'O'), ('50', 'O'), ('nM', 'O'), ('CDK8', 'B-prge'), ('-', 'I-prge'), ('siRNA', 'O'), ('or', 'O'), ('NC', 'B-prge')]"
"[('B', 'B-prge')]"
"[('Cell', 'O'), ('cycle', 'O'), ('distribution', 'O'), ('was', 'O'), ('analyzed', 'O'), ('by', 'O'), ('flow', 'O'), ('cytometry', 'O'), ('48', 'O'), ('h', 'O'), ('after', 'O'), ('transfection', 'O'), ('of', 'O'), ('MCF', 'B-prge'), ('-', 'I-prge'), ('7', 'I-prge'), ('cells', 'O'), ('with', 'O'), ('100', 'O'), ('nM', 'O'), ('CDK8', 'B-prge'), ('-', 'I-prge'), ('siRNA', 'O'), ('or', 'O'), ('NC', 'B-prge')]"
"[('C', 'O'), ('and', 'O'), ('D.', 'O'), ('The', 'O'), ('respective', 'O'), ('proportion', 'O'), ('of', 'O'), ('G0/G1', 'B-prge'), ('phase,', 'O'), ('S', 'B-prge'), ('-', 'I-prge'), ('phase', 'I-prge'), ('and', 'O'), ('G2/M', 'B-prge'), ('phase', 'O'), ('of', 'O'), ('CDK8', 'B-prge'), ('-', 'I-prge'), ('siRNA', 'O'), ('and', 'O'), ('NC', 'B-prge'), ('groups,', 'O'), ('P', 'O'), ('<', 'O'), ('0.05', 'O')]"
"[('This', 'O'), ('study', 'O'), ('was', 'O'), ('focused', 'O'), ('to', 'O'), ('identification', 'O'), ('of', 'O'), ('an', 'O'), ('oncogenic', 'O'), ('target', 'O'), ('in', 'O'), ('breast', 'O'), ('cancer', 'O'), ('cells', 'O'), ('and', 'O'), ('investigation', 'O'), ('of', 'O'), ('the', 'O'), ('effects', 'O'), ('of', 'O'), ('silencing', 'O'), ('the', 'O'), ('respective', 'O'), ('gene', 'O'), ('on', 'O'), ('breast', 'O'), ('cancer', 'O'), ('cell', 'O'), ('proliferation', 'O')]"
"[('Our', 'O'), ('data', 'O'), ('demonstrated', 'O'), ('that', 'O'), ('siRNA', 'O'), ('mediated', 'O'), ('silencing', 'O'), ('of', 'O'), ('CDK8', 'O'), ('gene', 'O'), ('has', 'O'), ('a', 'O'), ('significant', 'O'), ('influence', 'O'), ('on', 'O'), ('the', 'O'), ('survival', 'O'), ('of', 'O'), ('breast', 'O'), ('cancer', 'O'), ('cells', 'O')]"
"[('The', 'O'), ('proliferation', 'O'), ('rate,', 'O'), ('colony', 'O'), ('forming', 'O'), ('ability,', 'O'), ('wound', 'O'), ('healing', 'O'), ('assay', 'O'), ('and', 'O'), ('the', 'O'), ('cell', 'O'), ('cycle', 'O'), ('progression', 'O'), ('was', 'O'), ('strongly', 'O'), ('inhibited', 'O'), ('by', 'O'), ('the', 'O'), ('absence', 'O'), ('of', 'O'), ('CDK8', 'O')]"
"[('Hence', 'O'), ('it', 'O'), ('is', 'O'), ('clear', 'O'), ('that', 'O'), ('CDK8', 'O'), ('has', 'O'), ('played', 'O'), ('an', 'O'), ('important', 'O'), ('role', 'O'), ('in', 'O'), ('the', 'O'), ('proliferation', 'O'), ('and', 'O'), ('progression', 'O'), ('of', 'O'), ('breast', 'O'), ('cancer', 'O'), ('cells', 'O')]"
"[('in', 'O'), ('the', 'O'), ('regulation', 'O'), ('of', 'O'), ('β', 'B-prge'), ('-', 'I-prge'), ('catenin', 'I-prge'), ('activation', 'O')]"
"[('Furthermore,', 'O'), ('CDK8', 'O'), ('may', 'O'), ('also', 'O'), ('be', 'O'), ('involved', 'O'), ('in', 'O'), ('other', 'O'), ('signaling', 'O'), ('pathways,', 'O'), ('It', 'O'), ('is', 'O'), ('reported', 'O'), ('that', 'O'), ('CDK8', 'O'), ('is', 'O'), ('a', 'O'), ('positive', 'O'), ('co', 'B-prge'), ('-', 'I-prge'), ('stimulatory', 'I-prge'), ('regulator', 'O'), ('of', 'O'), ('the', 'O'), ('expression', 'O'), ('of', 'O'), ('p53', 'B-prge'), ('gene', 'O'), ('[15]', 'O'), ('and', 'O'), ('p53’s', 'O'), ('downstream', 'O'), ('gene', 'O'), ('p21', 'B-prge'), ('since', 'O'), ('the', 'O'), ('binding', 'O'), ('of', 'O'), ('CDK8', 'O'), ('to', 'O'), ('the', 'O'), ('p53', 'B-prge'), ('gene', 'O'), ('can', 'O'), ('increase', 'O'), ('its', 'O'), ('transcription', 'O'), ('activity', 'O')]"
"[('CDK8', 'O'), ('could', 'O'), ('also', 'O'), ('regulate', 'O'), ('the', 'O'), ('Notch', 'O'), ('signaling', 'O'), ('pathway', 'O'), ('[16]', 'O'), ('and', 'O'), ('exerted', 'O'), ('positive', 'O'), ('regulatory', 'O'), ('effects', 'O'), ('on', 'O'), ('the', 'O'), ('tumorigenicity', 'O'), ('related', 'O'), ('mRNA', 'O'), ('prolongation', 'O'), ('[17]', 'O')]"
"[('Therefore,', 'O'), ('CDK8', 'O'), ('may', 'O'), ('be', 'O'), ('considered', 'O'), ('to', 'O'), ('be', 'O'), ('a', 'O'), ('proto', 'B-prge'), ('-', 'I-prge'), ('oncogene', 'I-prge'), ('based', 'O'), ('on', 'O'), ('the', 'O'), ('above', 'O'), ('observations', 'O')]"
"[('CDK8', 'O'), ('is', 'O'), ('a', 'O'), ('member', 'O'), ('of', 'O'), ('CDK', 'O'), ('family', 'O'), ('(CDKs),', 'O'), ('which', 'O'), ('is', 'O'), ('a', 'O'), ('group', 'O'), ('of', 'O'), ('serine', 'B-prge'), ('-', 'I-prge'), ('threonine', 'I-prge'), ('protein', 'O'), ('kinase', 'O'), ('and', 'O'), ('consists', 'O'), ('of', 'O'), ('10', 'O'), ('members', 'O'), ('with', 'O'), ('different', 'O'), ('homology', 'O')]"
"[('CDK8', 'O'), ('locating', 'O'), ('on', 'O'), ('chromosome13q12', 'O'), ('has', 'O'), ('five', 'O'), ('transcripts', 'O'), ('and', 'O'), ('only', 'O'), ('one', 'O'), ('transcript', 'O'), ('encodes', 'O'), ('protein', 'O'), ('product', 'O'), ('containing', 'O'), ('464', 'O'), ('amino', 'O'), ('acid', 'O'), ('residues', 'O'), ('(molecular', 'O'), ('weight', 'O'), ('53.2', 'O'), ('kD)', 'O')]"
"[('In', 'O'), ('the', 'O'), ('past', 'O'), ('decade,', 'O'), ('It', 'O'), ('has', 'O'), ('been', 'O'), ('showed', 'O'), ('that', 'O'), ('CDKs', 'O'), ('are', 'O'), ('excessively', 'O'), ('activated', 'O'), ('in', 'O'), ('different', 'O'), ('tumors', 'O'), ('[12]', 'O')]"
"[('Preclinical', 'O'), ('studies', 'O'), ('have', 'O'), ('proved', 'O'), ('that', 'O'), ('CDKs', 'O'), ('can', 'O'), ('promote', 'O'), ('gene', 'O'), ('transcription,', 'O'), ('cell', 'O'), ('differentiation', 'O'), ('and', 'O'), ('angiogenesis', 'O'), ('[13]', 'O')]"
"[('CDK8', 'O'), ('plays', 'O'), ('a', 'O'), ('key', 'O'), ('role', 'O'), ('in', 'O'), ('the', 'O'), ('regulation', 'O'), ('of', 'O'), ('cell', 'O'), ('cycle', 'O'), ('and', 'O'), ('cell', 'O'), ('growth', 'O'), ('on', 'O'), ('post', 'B-prge'), ('-', 'I-prge'), ('transcriptional', 'I-prge'), ('level,', 'O'), ('and', 'O'), ('promotes', 'O'), ('the', 'O'), ('development', 'O'), ('and', 'O'), ('progression', 'O'), ('of', 'O'), ('colorectal', 'O'), ('cancer', 'O'), ('[14]', 'O')]"
"[('Recent', 'O'), ('studies', 'O'), ('have', 'O'), ('shown', 'O'), ('that', 'O'), ('CDK8', 'O'), ('plays', 'O'), ('a', 'O'), ('central', 'O'), ('role', 'O'), ('To', 'O'), ('investigate', 'O'), ('the', 'O'), ('effects', 'O'), ('of', 'O'), ('the', 'O'), ('activity', 'O'), ('of', 'O'), ('CDK8', 'O'), ('on', 'O'), ('breast', 'O'), ('cancer,', 'O'), ('CDK8', 'O'), ('interference', 'O'), ('was', 'O'), ('constructed', 'O'), ('and', 'O'), ('transfected', 'O'), ('in', 'O'), ('breast', 'O'), ('cancer', 'O'), ('cells', 'O'), ('MDA', 'B-prge'), ('-', 'I-prge'), ('MB', 'B-prge'), ('-', 'I-prge'), ('231', 'I-prge'), ('MDA', 'B-prge'), ('-', 'I-prge'), ('MB', 'B-prge'), ('-', 'I-prge'), ('231', 'I-prge'), ('and', 'O'), ('MCF', 'B-prge'), ('-', 'I-prge'), ('7', 'I-prge'), ('by', 'O'), ('the', 'O'), ('application', 'O'), ('of', 'O'), ('siRNA', 'O'), ('in', 'O'), ('our', 'O'), ('study', 'O')]"
"[('After', 'O'), ('silencing', 'O'), ('CDK8', 'O'), ('by', 'O'), ('siRNA,', 'O'), ('our', 'O'), ('results', 'O'), ('showed', 'O'), ('that', 'O'), ('CDK8', 'O'), ('expression', 'O'), ('was', 'O'), ('markedly', 'O'), ('lower', 'O'), ('at', 'O'), ('the', 'O'), ('mRNA', 'O'), ('and', 'O'), ('protein', 'O'), ('level', 'O')]"
"[('The', 'O'), ('results', 'O'), ('showed', 'O'), ('that', 'O'), ('both', 'O'), ('cell', 'O'), ('lines', 'O'), ('expressed', 'O'), ('significantly', 'O'), ('high', 'O'), ('levels', 'O'), ('of', 'O'), ('CDK8', 'O')]"
"[('These', 'O'), ('significant', 'O'), ('higher', 'O'), ('levels', 'O'), ('of', 'O'), ('CDK8', 'O'), ('expression', 'O'), ('was', 'O'), ('down', 'O'), ('regulated', 'O'), ('by', 'O'), ('transfecting', 'O'), ('with', 'O'), ('CDK8', 'B-prge'), ('-', 'I-prge'), ('siRNA', 'O'), ('in', 'O'), ('order', 'O'), ('to', 'O'), ('find', 'O'), ('whether', 'O'), ('CDK8', 'O'), ('down', 'O'), ('regulation', 'O'), ('has', 'O'), ('any', 'O'), ('effect', 'O'), ('on', 'O'), ('the', 'O'), ('breast', 'O'), ('cancer', 'O'), ('cell', 'O'), ('survival', 'O')]"
"[('The', 'O'), ('results', 'O'), ('demonstrated', 'O'), ('that', 'O'), ('siRNA', 'O'), ('mediated', 'O'), ('silencing', 'O'), ('of', 'O'), ('CDK8', 'O'), ('gene', 'O'), ('has', 'O'), ('a', 'O'), ('significant', 'O'), ('influence', 'O'), ('on', 'O'), ('the', 'O'), ('survival', 'O'), ('of', 'O'), ('breast', 'O'), ('cancer', 'O'), ('cells', 'O')]"
"[('The', 'O'), ('proliferation', 'O'), ('rate,', 'O'), ('colo', 'B-prge'), ('-', 'I-prge'), ('98', 'I-prge'), ('Int', 'O'), ('J', 'O'), ('Clin', 'O'), ('Exp', 'O'), ('Pathol', 'O'), ('2014;7(1):92', 'B-prge'), ('-', 'I-prge'), ('100', 'I-prge'), ('CDK8', 'O'), ('and', 'O'), ('breast', 'O'), ('cancer', 'O'), ('ny', 'O'), ('forming', 'O'), ('ability', 'O'), ('and', 'O'), ('the', 'O'), ('cell', 'O'), ('cycle', 'O'), ('progression', 'O'), ('was', 'O'), ('strongly', 'O'), ('inhibited', 'O'), ('by', 'O'), ('the', 'O'), ('absence', 'O'), ('of', 'O'), ('CDK8', 'O'), ('gene', 'O')]"
"[('Hence', 'O'), ('it', 'O'), ('is', 'O'), ('clear', 'O'), ('that', 'O'), ('CDK8', 'O'), ('gene', 'O'), ('has', 'O'), ('played', 'O'), ('an', 'O'), ('important', 'O'), ('role', 'O'), ('in', 'O'), ('the', 'O'), ('proliferation', 'O'), ('and', 'O'), ('progression', 'O'), ('of', 'O'), ('breast', 'O'), ('cancer', 'O'), ('cells', 'O')]"
"[('In', 'O'), ('conclusion', 'O'), ('through', 'O'), ('this', 'O'), ('study', 'O'), ('identifies', 'O'), ('CDK8', 'O'), ('as', 'O'), ('a', 'O'), ('critical', 'O'), ('gene', 'O'), ('in', 'O'), ('the', 'O'), ('breast', 'O'), ('cancer', 'O'), ('cell', 'O'), ('survival', 'O'), ('and', 'O'), ('growth', 'O')]"
"[('Therefore,', 'O'), ('siRNA', 'O'), ('mediated', 'O'), ('silencing', 'O'), ('of', 'O'), ('the', 'O'), ('CDK8', 'O'), ('gene', 'O'), ('has', 'O'), ('inhibitory', 'O'), ('effects', 'O'), ('on', 'O'), ('the', 'O'), ('breast', 'O'), ('cancer', 'O'), ('cell', 'O'), ('proliferation', 'O'), ('by', 'O'), ('inhibiting', 'O'), ('the', 'O'), ('cell', 'O'), ('cycle', 'O'), ('progression', 'O')]"
"[('Accordingly,', 'O'), ('it', 'O'), ('is', 'O'), ('indicated', 'O'), ('that', 'O'), ('the', 'O'), ('intervene', 'O'), ('strategy', 'O'), ('targeting', 'O'), ('CDK8', 'O'), ('in', 'O'), ('breast', 'O'), ('cancer', 'O'), ('may', 'O'), ('be', 'O'), ('of', 'O'), ('clinical', 'O'), ('value', 'O')]"
"[('Acknowledgements', 'O'), ('In', 'O'), ('this', 'O'), ('study,', 'O'), ('we', 'O'), ('demonstrated', 'O'), ('that', 'O'), ('CDK8', 'O'), ('specific', 'O'), ('siRNA', 'O'), ('transfection', 'O'), ('down', 'O'), ('regulated', 'O'), ('the', 'O'), ('expression', 'O'), ('of', 'O'), ('CDK8,', 'O'), ('which', 'O'), ('is', 'O'), ('expressed', 'O'), ('in', 'O'), ('a', 'O'), ('high', 'O'), ('fraction', 'O'), ('in', 'O'), ('breast', 'O'), ('cancer', 'O')]"
"[('We', 'O'), ('also', 'O'), ('found', 'O'), ('out', 'O'), ('that', 'O'), ('CDK8', 'O'), ('specific', 'O'), ('siRNA', 'O'), ('inhibited', 'O'), ('the', 'O'), ('proliferation', 'O'), ('of', 'O'), ('breast', 'O'), ('cancer', 'O'), ('cells,', 'O'), ('promoted', 'O'), ('their', 'O'), ('migration', 'O'), ('and', 'O'), ('arrested', 'O'), ('these', 'O'), ('cells', 'O'), ('in', 'O'), ('the', 'O'), ('G0/', 'O'), ('G1', 'O'), ('phase', 'O')]"
"[('Our', 'O'), ('results', 'O'), ('showed', 'O'), ('that', 'O'), ('CDK8', 'O'), ('plays', 'O'), ('an', 'O'), ('essential', 'O'), ('role', 'O'), ('in', 'O'), ('breast', 'O'), ('cancer', 'O'), ('cell', 'O'), ('proliferation', 'O'), ('and', 'O'), ('migration,', 'O'), ('its', 'O'), ('gene', 'O'), ('expression', 'O'), ('could', 'O'), ('be', 'O'), ('a', 'O'), ('therapeutic', 'O'), ('target', 'O')]"
"[('This', 'O'), ('work', 'O'), ('was', 'O'), ('partially', 'O'), ('supported', 'O'), ('by', 'O'), ('grants', 'O'), ('from', 'O'), ('the', 'O'), ('National', 'O'), ('Natural', 'O'), ('Science', 'O'), ('Foundation', 'O'), ('of', 'O'), ('China', 'O'), ('(No.81272240)', 'O')]"
"[('[5]', 'O'), ('[6]', 'O'), ('[7]', 'O'), ('[8]', 'O'), ('[9]', 'O'), ('[10]', 'O'), ('Disclosure', 'O'), ('of', 'O'), ('conflict', 'O'), ('of', 'O'), ('interest', 'O'), ('None', 'O')]"
"[('Address', 'O'), ('correspondence', 'O'), ('to:', 'O'), ('Lin', 'O'), ('Fang', 'O'), ('or', 'O'), ('Xiao', 'B-prge'), ('-', 'I-prge'), ('Yu', 'O'), ('Li,', 'O'), ('Department', 'O'), ('of', 'O'), ('Breast', 'O'), ('and', 'O'), ('Thyroid', 'O'), ('Surgery,', 'O'), ('Shanghai', 'O'), ('Tenth', 'O'), ('People’s', 'O'), ('Hospital,', 'O'), ('Tongji', 'O'), ('University,', 'O'), ('Shanghai,', 'O'), ('200072,', 'O'), ('China', 'O')]"
"[('E', 'B-prge'), ('-', 'I-prge'), ('mail:', 'I-prge'), ('fanglin', 'O'), ('_', 'O'), ('f@126.com', 'O'), ('(Lin', 'O'), ('Fang);', 'O'), ('1132502lxy@tongji.edu.cn', 'O'), ('(Xiao', 'B-prge'), ('-', 'I-prge'), ('Yu', 'O'), ('Li)', 'O'), ('[11]', 'O'), ('[12]', 'O'), ('References', 'O'), ('[1]', 'O'), ('[2]', 'O'), ('[3]', 'O'), ('[4]', 'O'), ('99', 'O'), ('Smolarek', 'O'), ('AK,', 'O'), ('Suh', 'O'), ('N.', 'B-prge'), ('Chemopreventive', 'O'), ('activity', 'O'), ('of', 'O'), ('vitamin', 'O'), ('E', 'O'), ('in', 'O'), ('breast', 'O'), ('cancer:', 'O'), ('a', 'O'), ('focus', 'O'), ('on', 'O'), ('gamma', 'B-prge'), ('-', 'I-prge'), ('and', 'I-prge'), ('delta', 'B-prge'), ('-', 'I-prge'), ('tocopherol', 'I-prge')]"
"[('Nutrients', 'O'), ('2011;', 'O'), ('3:', 'O'), ('962', 'B-prge'), ('-', 'I-prge'), ('986', 'I-prge')]"
"[('Siegel', 'O'), ('R,', 'O'), ('Naishadham', 'O'), ('D,', 'O'), ('Jemal', 'O'), ('A', 'O')]"
"[('Cancer', 'O'), ('statistics', 'O'), ('2012', 'O')]"
"[('CA', 'O'), ('Cancer', 'O'), ('J', 'O'), ('Clin', 'O'), ('2012;', 'O'), ('62:', 'O'), ('1029', 'O')]"
"[('Liu', 'O'), ('X,', 'O'), ('Jiang', 'O'), ('F,', 'O'), ('Kalidas', 'O'), ('S,', 'O'), ('Smith', 'O'), ('D,', 'O'), ('Liu', 'O'), ('Q.', 'O'), ('Dicer', 'B-prge'), ('-', 'I-prge'), ('2', 'I-prge'), ('and', 'O'), ('R2D2', 'B-prge'), ('coordinately', 'O'), ('bind', 'O'), ('siRNA', 'O'), ('to', 'O'), ('promote', 'O'), ('assembly', 'O'), ('of', 'O'), ('the', 'O'), ('siRISC', 'O'), ('complexes', 'O')]"
"[('RNA', 'O'), ('2006;', 'O'), ('12:', 'O'), ('1514', 'B-prge'), ('-', 'I-prge'), ('1520', 'I-prge')]"
"[('Størvold', 'O'), ('GL,', 'O'), ('Andersen', 'O'), ('TI,', 'O'), ('Perou', 'O'), ('CM,', 'O'), ('Frengen', 'O'), ('E.', 'O'), ('siRNA:', 'O'), ('a', 'O'), ('potential', 'O'), ('tool', 'O'), ('for', 'O'), ('future', 'O'), ('breast', 'O'), ('can', 'B-prge'), ('-', 'I-prge'), ('[13]', 'I-prge'), ('[14]', 'O'), ('cer', 'O'), ('therapy', 'O')]"
"[('Crit', 'O'), ('Rev', 'O'), ('Oncog', 'O'), ('2006;', 'O'), ('12:', 'O'), ('127150', 'O')]"
"[('Adler', 'O'), ('AS,', 'O'), ('McCleland', 'B-prge'), ('ML,', 'B-prge'), ('Truong', 'O'), ('T,', 'O'), ('Lau', 'O'), ('S,', 'O'), ('Modrusan', 'O'), ('Z,', 'O'), ('Soukup', 'O'), ('TM,', 'O'), ('Roose', 'B-prge'), ('-', 'I-prge'), ('Girma', 'O'), ('M,', 'O'), ('Blackwood', 'O'), ('EM', 'B-prge'), ('and', 'O'), ('Firestein', 'O'), ('R.', 'O'), ('CDK8', 'O'), ('maintains', 'O'), ('tumor', 'O'), ('dedifferentiation', 'O'), ('and', 'O'), ('embryonic', 'O'), ('stem', 'O'), ('cell', 'O'), ('pluripotency', 'O')]"
"[('Cancer', 'O'), ('Res', 'O'), ('2012;', 'O'), ('72:', 'O'), ('21292139', 'O')]"
"[('Gu', 'O'), ('W,', 'O'), ('Wang', 'O'), ('C,', 'O'), ('Li', 'O'), ('W,', 'O'), ('Hsu', 'O'), ('FN,', 'O'), ('Tian', 'O'), ('L,', 'O'), ('Zhou', 'O'), ('J,', 'O'), ('Yuan', 'O'), ('C,', 'O'), ('Xie', 'O'), ('XJ,', 'O'), ('Jiang', 'O'), ('T,', 'O'), ('Addya', 'O'), ('S,', 'O'), ('Tai', 'O'), ('Y,', 'O'), ('Kong', 'O'), ('B', 'B-prge'), ('and', 'O'), ('Ji', 'O'), ('JY', 'O')]"
"[('Tumor', 'B-prge'), ('-', 'I-prge'), ('suppressive', 'I-prge'), ('effects', 'O'), ('of', 'O'), ('CDK8', 'O'), ('in', 'O'), ('endometrial', 'O'), ('cancer', 'O'), ('cells', 'O')]"
"[('Cell', 'O'), ('Cycle', 'O'), ('2013;', 'O'), ('12:', 'O'), ('987', 'B-prge'), ('-', 'I-prge'), ('999', 'I-prge')]"
"[('Adler', 'O'), ('AS,', 'O'), ('Mccleland', 'O'), ('ML,', 'B-prge'), ('Truong', 'O'), ('T.', 'O'), ('CDK8', 'O'), ('maintains', 'O'), ('tumor', 'O'), ('dedifferentiation', 'O'), ('and', 'O'), ('embryonic', 'O'), ('stem', 'O'), ('cell', 'O'), ('pluripotency', 'O')]"
"[('Cancer', 'O'), ('Res', 'O'), ('2012;', 'O'), ('72:', 'O'), ('2129', 'B-prge'), ('-', 'I-prge'), ('2139', 'I-prge')]"
"[('Firestein', 'O'), ('R,', 'O'), ('Bass', 'O'), ('AJ,', 'O'), ('Kim', 'O'), ('SY,', 'O'), ('Dunn', 'O'), ('IF,', 'O'), ('Silver', 'O'), ('SJ,', 'O'), ('Guney', 'O'), ('I,', 'O'), ('Freed', 'O'), ('E,', 'O'), ('Ligon', 'O'), ('AH,', 'O'), ('Vena', 'O'), ('N,', 'B-prge'), ('Ogino', 'O'), ('S,', 'O'), ('Chheda', 'O'), ('MG,', 'B-prge'), ('Tamayo', 'O'), ('P,', 'O'), ('Finn', 'O'), ('S,', 'O'), ('Shrestha', 'O'), ('Y,', 'O'), ('Boehm', 'O'), ('JS,', 'O'), ('Jain', 'O'), ('S,', 'O'), ('Bojarski', 'O'), ('E,', 'O'), ('Mermel', 'O'), ('C,', 'O'), ('Barretina', 'O'), ('J,', 'O'), ('Chan', 'O'), ('JA,', 'O'), ('Baselga', 'O'), ('J,', 'O'), ('Tabernero', 'O'), ('J,', 'O'), ('Root', 'O'), ('DE,', 'O'), ('Fuchs', 'O'), ('CS,', 'O'), ('Loda', 'O'), ('M,', 'O'), ('Shivdasani', 'O'), ('RA,', 'O'), ('Meyerson', 'O'), ('M', 'O'), ('and', 'O'), ('Hahn', 'O'), ('WC', 'O')]"
"[('CDK8', 'O'), ('is', 'O'), ('a', 'O'), ('colorectal', 'O'), ('cancer', 'O'), ('oncogene', 'O'), ('that', 'O'), ('regulates', 'O'), ('beta', 'B-prge'), ('-', 'I-prge'), ('catenin', 'I-prge'), ('activity', 'O')]"
"[('Nature', 'O'), ('2008;', 'O'), ('455:', 'O'), ('547', 'B-prge'), ('-', 'I-prge'), ('551', 'I-prge')]"
"[('Gu', 'O'), ('W,', 'O'), ('Wang', 'O'), ('C,', 'O'), ('Li', 'O'), ('W,', 'O'), ('Hsu', 'O'), ('FN,', 'O'), ('Tian', 'O'), ('L,', 'O'), ('Zhou', 'O'), ('J,', 'O'), ('Yuan', 'O'), ('C,', 'O'), ('Xie', 'O'), ('XJ,', 'O'), ('Jiang', 'O'), ('T,', 'O'), ('Addya', 'O'), ('S,', 'O'), ('Tai', 'O'), ('Y,', 'O'), ('Kong', 'O'), ('B', 'B-prge'), ('and', 'O'), ('Ji', 'O'), ('JY', 'O')]"
"[('Tumor', 'B-prge'), ('-', 'I-prge'), ('suppressive', 'I-prge'), ('effects', 'O'), ('of', 'O'), ('CDK8', 'O'), ('in', 'O'), ('endometrial', 'O'), ('cancer', 'O'), ('cells', 'O')]"
"[('Cell', 'O'), ('Cycle', 'O'), ('2013;', 'O'), ('12:', 'O'), ('987', 'B-prge'), ('-', 'I-prge'), ('999', 'I-prge')]"
"[('Dang', 'O'), ('CM,', 'O'), ('Estrada', 'O'), ('S,', 'O'), ('Bresee', 'O'), ('C', 'O'), ('and', 'O'), ('Phillips', 'O'), ('EH', 'B-prge')]"
"[('Exploring', 'O'), ('Potential', 'O'), ('Use', 'O'), ('of', 'O'), ('Internet,', 'O'), ('E', 'B-prge'), ('-', 'I-prge'), ('mail,', 'I-prge'), ('and', 'O'), ('Instant', 'O'), ('Text', 'O'), ('Messaging', 'O'), ('to', 'O'), ('Promote', 'O'), ('Breast', 'O'), ('Health', 'O'), ('and', 'O'), ('Mammogram', 'O'), ('Use', 'O'), ('among', 'O'), ('Immigrant', 'O'), ('Hispanic', 'O'), ('Women', 'O'), ('in', 'O'), ('Los', 'O'), ('Angeles', 'O'), ('County', 'O')]"
"[('Am', 'O'), ('Surg', 'O'), ('2013;', 'O'), ('79:', 'O'), ('997', 'B-prge'), ('-', 'I-prge'), ('1000', 'I-prge')]"
"[('Datta', 'O'), ('M', 'O'), ('and', 'O'), ('Schwartz', 'O'), ('GG', 'O')]"
"[('Calcium', 'O'), ('and', 'O'), ('vitamin', 'O'), ('D', 'B-prge'), ('supplementation', 'O'), ('and', 'O'), ('loss', 'O'), ('of', 'O'), ('bone', 'O'), ('mineral', 'O'), ('density', 'O'), ('in', 'O'), ('women', 'O'), ('undergoing', 'O'), ('breast', 'O'), ('cancer', 'O'), ('therapy', 'O')]"
"[('Crit', 'O'), ('Rev', 'O'), ('Oncol', 'O'), ('Hematol', 'O'), ('2013;', 'O'), ('88:', 'O'), ('613', 'B-prge'), ('-', 'I-prge'), ('624', 'I-prge')]"
"[('Sharma', 'O'), ('PS,', 'O'), ('Sharma', 'O'), ('R', 'O'), ('and', 'O'), ('Tyagi', 'O'), ('R.', 'O'), ('Inhibitiors', 'O'), ('of', 'O'), ('cyclin', 'O'), ('depentent', 'O'), ('kinases:', 'O'), ('useful', 'O'), ('targets', 'O'), ('for', 'O'), ('cancer', 'O'), ('treatment', 'O')]"
"[('Curr', 'O'), ('Cancer', 'O'), ('Drug', 'O'), ('Targets', 'O'), ('2008;', 'O'), ('8:', 'O'), ('53', 'B-prge'), ('-', 'I-prge'), ('75', 'I-prge')]"
"[('Senderowicz', 'O'), ('AM', 'B-prge'), ('and', 'O'), ('Sausville', 'O'), ('EA', 'O')]"
"[('Preclinical', 'O'), ('and', 'O'), ('clinical', 'O'), ('development', 'O'), ('of', 'O'), ('cyclin', 'B-prge'), ('-', 'I-prge'), ('dependent', 'I-prge'), ('kinase', 'O'), ('modulators', 'O')]"
"[('J', 'O'), ('Natl', 'O'), ('Cancer', 'O'), ('Inst', 'O'), ('2000;', 'O'), ('92:', 'O'), ('376', 'B-prge'), ('-', 'I-prge'), ('387', 'I-prge')]"
"[('Firestein', 'O'), ('R,', 'O'), ('Bass', 'O'), ('AJ,', 'O'), ('Kim', 'O'), ('SY,', 'O'), ('Dunn', 'O'), ('IF,', 'O'), ('Silver', 'O'), ('SJ,', 'O'), ('Guney', 'O'), ('I,', 'O'), ('Freed', 'O'), ('E,', 'O'), ('Ligon', 'O'), ('AH,', 'O'), ('Vena', 'O'), ('N,', 'B-prge'), ('Ogino', 'O'), ('S,', 'O'), ('Chheda', 'O'), ('MG,', 'B-prge'), ('Tamayo', 'O'), ('P,', 'O'), ('Finn', 'O'), ('S,', 'O'), ('Shrestha', 'O'), ('Y,', 'O'), ('Boehm', 'O'), ('JS,', 'O'), ('Jain', 'O'), ('S,', 'O'), ('Bojarski', 'O'), ('E,', 'O'), ('Mermel', 'O'), ('C,', 'O'), ('Barretina', 'O'), ('J,', 'O'), ('Chan', 'O'), ('JA,', 'O'), ('Baselga', 'O'), ('J,', 'O'), ('Tabernero', 'O'), ('J,', 'O'), ('Root', 'O'), ('DE,', 'O'), ('Fuchs', 'O'), ('CS,', 'O'), ('Loda', 'O'), ('M,', 'O'), ('Shivdasani', 'O'), ('RA,', 'O'), ('Meyerson', 'O'), ('M', 'O'), ('and', 'O'), ('Hahn', 'O'), ('WC', 'O')]"
"[('CDK8', 'O'), ('is', 'O'), ('a', 'O'), ('colorectal', 'O'), ('cancer', 'O'), ('oncogene', 'O'), ('that', 'O'), ('regulates', 'O'), ('beta', 'B-prge'), ('-', 'I-prge'), ('catenin', 'I-prge'), ('activity', 'O')]"
"[('Nature', 'O'), ('2008;', 'O'), ('455:', 'O'), ('547', 'B-prge'), ('-', 'I-prge'), ('551', 'I-prge')]"
"[('Int', 'O'), ('J', 'O'), ('Clin', 'O'), ('Exp', 'O'), ('Pathol', 'O'), ('2014;7(1):92', 'B-prge'), ('-', 'I-prge'), ('100', 'I-prge'), ('CDK8', 'O'), ('and', 'O'), ('breast', 'O'), ('cancer', 'O'), ('[15]', 'O'), ('Firestein', 'O'), ('R,', 'O'), ('Shima', 'O'), ('K,', 'O'), ('Nosho', 'O'), ('K,', 'O'), ('Irahara', 'O'), ('N,', 'B-prge'), ('Baba', 'O'), ('Y,', 'O'), ('Bojarski', 'O'), ('E,', 'O'), ('Giovannucci', 'O'), ('EL,', 'O'), ('Hahn', 'O'), ('WC,', 'O'), ('Fuchs', 'O'), ('CS', 'O'), ('and', 'O'), ('Ogino', 'O'), ('S.', 'O'), ('CDK8', 'O'), ('expression', 'O'), ('in', 'O'), ('470', 'O'), ('colorectal', 'O'), ('cancers', 'O'), ('in', 'O'), ('relation', 'O'), ('to', 'O'), ('beta', 'B-prge'), ('-', 'I-prge'), ('catenin', 'I-prge'), ('activation,', 'O'), ('other', 'O'), ('molecular', 'O'), ('alterations', 'O'), ('and', 'O'), ('patient', 'O'), ('survival', 'O')]"
"[('Int', 'O'), ('J', 'O'), ('Cancer', 'O'), ('2010;', 'O'), ('126:', 'O'), ('28632873', 'O')]"
"[('[16]', 'O'), ('Donner', 'O'), ('AJ,', 'O'), ('Szostek', 'O'), ('S,', 'O'), ('Hoover', 'O'), ('JM', 'B-prge'), ('and', 'O'), ('Espinosa', 'O'), ('JM', 'B-prge')]"
"[('CDK8', 'O'), ('is', 'O'), ('a', 'O'), ('stimulus', 'B-prge'), ('-', 'I-prge'), ('specific', 'I-prge'), ('positive', 'O'), ('coregulator', 'O'), ('of', 'O'), ('p53', 'B-prge'), ('target', 'O'), ('genes', 'O')]"
"[('Mol', 'O'), ('Cell', 'O'), ('2007;', 'O'), ('27:', 'O'), ('121', 'B-prge'), ('-', 'I-prge'), ('133', 'I-prge')]"
"[('100', 'O'), ('[17]', 'O'), ('Fryer', 'O'), ('CJ,', 'O'), ('White', 'O'), ('JB', 'B-prge'), ('and', 'O'), ('Jones', 'O'), ('KA', 'O')]"
"[('Mastermind', 'O'), ('recruits', 'O'), ('CycC:CDK8', 'O'), ('to', 'O'), ('phosphorylate', 'O'), ('the', 'O'), ('Notch', 'O'), ('ICD', 'B-prge'), ('and', 'O'), ('coordinate', 'O'), ('activation', 'O'), ('with', 'O'), ('turnover', 'O')]"
"[('Mol', 'O'), ('Cell', 'O'), ('2004;', 'O'), ('16:', 'O'), ('509', 'B-prge'), ('-', 'I-prge'), ('520', 'I-prge')]"
"[('Int', 'O'), ('J', 'O'), ('Clin', 'O'), ('Exp', 'O'), ('Pathol', 'O'), ('2014;7(1):92', 'B-prge'), ('-', 'I-prge'), ('10', 'I-prge')]"
